
<!-- Created with Inkscape (http://www.inkscape.org/) -->

<svg
   xmlns:dc="http://purl.org/dc/elements/1.1/"
   xmlns:cc="http://creativecommons.org/ns#"
   xmlns:rdf="http://www.w3.org/1999/02/22-rdf-syntax-ns#"
   xmlns:svg="http://www.w3.org/2000/svg"
   xmlns="http://www.w3.org/2000/svg"
   xmlns:sodipodi="http://sodipodi.sourceforge.net/DTD/sodipodi-0.dtd"
   xmlns:inkscape="http://www.inkscape.org/namespaces/inkscape"
   width="300"
   height="130"
   viewBox="0 0 79.374998 34.395834"
   version="1.1"
   id="svg8"
   inkscape:version="0.92.2 (5c3e80d, 2017-08-06)"
   sodipodi:docname="24.svg">
  <defs
     id="defs2">
    <style
       id="style817">
      .cls-1 {
        fill: #898989;
        fill-rule: evenodd;
      }
    </style>
    <style
       id="style5148">
      .cls-1 {
        fill: #898989;
        fill-rule: evenodd;
      }
    </style>
    <style
       id="style5162">
      .cls-1 {
        fill: #898989;
      }

      .cls-1, .cls-2 {
        fill-rule: evenodd;
      }

      .cls-2 {
        fill: #cacaca;
      }
    </style>
    <style
       id="style5288">
      .cls-1 {
        fill: #898989;
        fill-rule: evenodd;
      }
    </style>
    <style
       id="style5302">
      .cls-1 {
        fill: #898989;
        fill-rule: evenodd;
      }
    </style>
    <style
       id="style5316">
      .cls-1 {
        fill: #898989;
        fill-rule: evenodd;
      }
    </style>
    <style
       id="style5330">
      .cls-1 {
        fill: #898989;
        fill-rule: evenodd;
      }
    </style>
    <style
       id="style5344">
      .cls-1 {
        fill: #898989;
        fill-rule: evenodd;
      }
    </style>
    <style
       id="style5358">
      .cls-1 {
        fill: #898989;
        fill-rule: evenodd;
      }
    </style>
    <style
       id="style5372">
      .cls-1 {
        fill: #898989;
        fill-rule: evenodd;
      }
    </style>
    <style
       id="style5386">
      .cls-1 {
        fill: #898989;
      }

      .cls-1, .cls-2 {
        fill-rule: evenodd;
      }

      .cls-2 {
        fill: #b0b0b0;
      }
    </style>
    <style
       id="style5404">
      .cls-1 {
        fill: #898989;
        fill-rule: evenodd;
      }
    </style>
    <style
       id="style5418">
      .cls-1 {
        fill: #898989;
        fill-rule: evenodd;
      }
    </style>
    <style
       id="style5432">
      .cls-1 {
        fill: #898989;
        fill-rule: evenodd;
      }
    </style>
    <style
       id="style5446">
      .cls-1 {
        fill: #898989;
        fill-rule: evenodd;
      }
    </style>
    <style
       id="style5460">
      .cls-1 {
        fill: #898989;
        fill-rule: evenodd;
      }
    </style>
    <style
       id="style5474">
      .cls-1 {
        fill: #898989;
        fill-rule: evenodd;
      }
    </style>
    <style
       id="style5488">
      .cls-1 {
        fill: #898989;
        fill-rule: evenodd;
      }
    </style>
    <style
       id="style5502">
      .cls-1 {
        fill: #898989;
        fill-rule: evenodd;
      }
    </style>
    <style
       id="style5516">
      .cls-1 {
        fill: #898989;
        fill-rule: evenodd;
      }
    </style>
  </defs>
  <sodipodi:namedview
     id="base"
     pagecolor="#ffffff"
     bordercolor="#666666"
     borderopacity="1.0"
     inkscape:pageopacity="0.0"
     inkscape:pageshadow="2"
     inkscape:zoom="1.8101934"
     inkscape:cx="261.24198"
     inkscape:cy="43.948379"
     inkscape:document-units="mm"
     inkscape:current-layer="layer1"
     showgrid="false"
     showguides="false"
     units="px"
     inkscape:window-width="1680"
     inkscape:window-height="987"
     inkscape:window-x="-8"
     inkscape:window-y="-8"
     inkscape:window-maximized="1">
    <sodipodi:guide
       position="0,0"
       orientation="0,793.70079"
       id="guide829"
       inkscape:locked="false" />
    <sodipodi:guide
       position="210,0"
       orientation="-1122.5197,0"
       id="guide831"
       inkscape:locked="false" />
    <sodipodi:guide
       position="210,297"
       orientation="0,-793.70079"
       id="guide833"
       inkscape:locked="false" />
    <sodipodi:guide
       position="0,297"
       orientation="1122.5197,0"
       id="guide835"
       inkscape:locked="false" />
  </sodipodi:namedview>
  <metadata
     id="metadata5">
    <rdf:RDF>
      <cc:Work
         rdf:about="">
        <dc:format>image/svg+xml</dc:format>
        <dc:type
           rdf:resource="http://purl.org/dc/dcmitype/StillImage" />
        <dc:title></dc:title>
      </cc:Work>
    </rdf:RDF>
  </metadata>
  <g
     inkscape:label="Layer 1"
     inkscape:groupmode="layer"
     id="layer1"
     transform="translate(0,-262.60414)">
    <path
       id="path5520"
       d="m 53.813149,283.19142 q -1.9939,0 -3.988064,0 c -0.249502,0 -0.263261,0.0264 -0.182827,0.25796 0.343958,0.99193 1.067593,1.50813 2.078831,1.71292 1.135062,0.22886 2.032264,-0.16087 2.791619,-0.97102 0.132291,-0.14182 0.264583,-0.28443 0.386291,-0.43604 a 0.18362083,0.18362083 0 0 1 0.262202,-0.0585 q 1.296459,0.72496 2.592917,1.45256 c 0.116152,0.0648 0.09419,0.13229 0.03387,0.22966 a 5.7837917,5.7837917 0 0 1 -2.110317,1.99416 6.9466354,6.9466354 0 0 1 -2.489465,0.80831 5.7790292,5.7790292 0 0 1 -1.327943,0.0759 13.562542,13.562542 0 0 1 -1.538023,-0.22754 5.7631542,5.7631542 0 0 1 -1.662642,-0.64161 5.0583042,5.0583042 0 0 1 -2.024327,-2.09021 7.0720479,7.0720479 0 0 1 -0.495829,-4.72043 5.5959375,5.5959375 0 0 1 2.674408,-3.54912 6.5629896,6.5629896 0 0 1 3.880115,-0.839 5.7348437,5.7348437 0 0 1 3.316816,1.23719 5.1927125,5.1927125 0 0 1 1.432984,1.87855 c 0.541073,1.1803 0.656431,2.43125 0.62865,3.7076 -0.0034,0.16537 -0.08414,0.1786 -0.213784,0.17807 -0.926041,-0.003 -1.852083,0 -2.778125,0 h -1.26656 z m -4.058179,-2.4392 c 1.50495,-0.007 2.995083,0.0111 4.504002,-0.0119 -0.437356,-1.21868 -1.210204,-1.69598 -2.431521,-1.61793 a 2.219325,2.219325 0 0 0 -2.072481,1.6301 z m -28.456202,7.18 v -14.38196 c 0.105833,-0.007 0.204787,-0.0204 0.303477,-0.0204 1.14644,-0.002 2.292879,0.003 3.439583,-0.005 0.188648,-0.002 0.243417,0.0439 0.242888,0.23812 q -0.0093,5.30728 -0.0042,10.61535 c 0,0.3003 0,0.3003 0.296598,0.3003 h 4.194968 c 0.277019,0 0.286015,0.009 0.28628,0.28602 0,0.92869 -0.004,1.85711 0.0037,2.78553 a 0.17727083,0.17727083 0 0 1 -0.218017,0.21431 q -4.157133,-0.004 -8.314267,-0.003 a 1.9364854,1.9364854 0 0 1 -0.23098,-0.0293 z m 17.969971,-4.22937 c 0,-1.33032 -0.0037,-2.66065 0.0042,-3.99071 0,-0.19155 -0.05636,-0.25479 -0.245533,-0.24659 -0.283104,0.0122 -0.567002,0 -0.850371,0.005 a 0.16298333,0.16298333 0 0 1 -0.201877,-0.19342 q 0.0079,-1.32715 0,-2.6543 a 0.17912292,0.17912292 0 0 1 0.218017,-0.20743 c 0.270933,0.003 0.541866,-0.003 0.812535,0.002 a 0.20134792,0.20134792 0 0 0 0.236538,-0.23813 9.4559437,9.4559437 0 0 1 0.03916,-1.03187 c 0.142875,-1.17872 0.725752,-2.04946 1.852083,-2.51037 a 5.7208208,5.7208208 0 0 1 3.021542,-0.3085 c 0.286014,0.0402 0.570706,0.09 0.85725,0.12435 a 0.20399375,0.20399375 0 0 1 0.216694,0.22622 q -0.0019,1.29858 0,2.59768 c 0,0.16854 -0.08176,0.1688 -0.220398,0.14684 a 4.1087146,4.1087146 0 0 0 -1.346465,-0.11165 0.835025,0.835025 0 0 0 -0.802481,0.82232 c -0.02302,0.23019 0.02011,0.28073 0.253735,0.28152 0.497682,0.002 0.995363,0 1.493044,0 0.236802,0 0.25691,0.0228 0.257175,0.26009 0,0.85328 -0.0045,1.70682 0.0037,2.56011 a 0.1920875,0.1920875 0 0 1 -0.238125,0.23547 c -0.497416,-0.01 -0.995362,-0.004 -1.493044,-0.003 -0.247914,0 -0.255058,0.007 -0.255058,0.25426 q 0,3.97193 0,7.94412 c 0,0.29501 0,0.29527 -0.302948,0.29527 -1.026848,0 -2.053696,-0.004 -3.080544,0.004 a 0.18944167,0.18944167 0 0 1 -0.232833,-0.23495 c 0.0069,-1.3417 0.0037,-2.68446 0.0037,-4.02749 z m -3.459956,-1.49383 q 0,2.74796 0,5.49619 c 0,0.25664 0,0.25717 -0.259028,0.25717 q -1.56845,0 -3.1369,0 c -0.254264,0 -0.255058,-0.002 -0.255322,-0.24791 q 0,-5.51498 0,-11.02969 c 0,-0.25056 0.01587,-0.26829 0.266435,-0.26855 1.051983,0 2.103967,0.003 3.155685,-0.004 a 0.19552708,0.19552708 0 0 1 0.23204,0.24474 q -0.0074,2.77601 -0.0032,5.55202 z m -1.883569,0.19314 a 0.59002083,0.59002083 0 0 1 -0.06853,-0.0495 0.56806042,0.56806042 0 0 0 -0.661459,-0.12277 0.58975625,0.58975625 0 0 0 -0.343958,0.56171 c -0.0037,0.0812 0.0034,0.16298 -0.0021,0.24421 a 0.17912292,0.17912292 0 0 0 0.211667,0.21537 q 0.934244,-0.002 1.868223,0 a 0.16430625,0.16430625 0 0 0 0.187325,-0.19764 3.7348583,3.7348583 0 0 1 0.0019,-0.43207 0.619125,0.619125 0 0 0 -0.69559,-0.61304 0.64240833,0.64240833 0 0 0 -0.497681,0.3937 z m -0.183886,1.54226 v -0.002 c -0.238125,0 -0.478631,-0.008 -0.71702,0.006 a 0.45614167,0.45614167 0 0 0 -0.172509,0.12065 0.76385208,0.76385208 0 0 0 0.173038,0.1524 0.55932917,0.55932917 0 0 0 0.205052,0.007 c 0.427566,0.006 0.855662,0 1.281906,0.0228 a 0.35983333,0.35983333 0 0 1 0.37809,0.36618 c 0.02831,0.31353 -0.05424,0.47175 -0.302155,0.54742 a 1.0638896,1.0638896 0 0 1 -0.296068,0.0429 c -0.421217,0.005 -0.842963,-0.002 -1.264179,0.009 a 0.44661667,0.44661667 0 0 0 -0.175155,0.11827 0.44053125,0.44053125 0 0 0 0.168275,0.15054 c 0.484188,0.0111 0.969963,0.0265 1.452563,-0.003 a 0.71252292,0.71252292 0 0 0 0.711994,-0.8009 0.7254875,0.7254875 0 0 0 -0.745861,-0.73448 c -0.232304,-0.0146 -0.465666,-0.002 -0.698235,-0.002 z m 0.235215,3.34751 h 0.963877 c 0.09498,0.002 0.178858,-0.005 0.17436,-0.136 a 0.1476375,0.1476375 0 0 0 -0.182033,-0.15875 c -0.188912,0.005 -0.378619,-0.007 -0.567002,0.004 a 0.15292917,0.15292917 0 0 1 -0.190235,-0.19818 0.8429625,0.8429625 0 0 0 0,-0.11271 0.59187292,0.59187292 0 0 0 -0.485511,-0.58208 c -0.381264,-0.0598 -0.668602,0.073 -0.760941,0.38708 a 3.8724417,3.8724417 0 0 0 -0.0807,0.58976 0.16377708,0.16377708 0 0 0 0.201612,0.21008 c 0.308769,-0.008 0.617538,-0.002 0.926306,-0.002 z m -0.771525,-10.23885 c -0.0889,-0.0214 -0.201348,-0.0794 -0.268817,0.0669 a 1.0252604,1.0252604 0 0 0 0.08334,1.08479 1.2236979,1.2236979 0 0 0 1.56501,0.35428 1.0641542,1.0641542 0 0 0 0.505884,-1.39012 0.18520833,0.18520833 0 0 0 -0.252413,-0.12991 c -0.134143,0.0474 -0.0418,0.14261 -0.01376,0.2159 a 0.90619792,0.90619792 0 0 1 0.009,0.64082 c -0.161925,0.46964 -0.745861,0.58208 -1.141413,0.46143 a 0.72046042,0.72046042 0 0 1 -0.567266,-0.68977 3.6295542,3.6295542 0 0 1 0.08043,-0.61436 z m 0.799306,4.27276 c 0.30824,0 0.616744,0.006 0.926042,-0.005 a 0.22489583,0.22489583 0 0 0 0.172508,-0.11139 6.3748708,6.3748708 0 0 0 0.0037,-0.73211 0.1603375,0.1603375 0 0 0 -0.119062,-0.10583 0.16483542,0.16483542 0 0 0 -0.118269,0.10583 1.1131021,1.1131021 0 0 0 -0.0082,0.3175 c 0.01984,0.18124 -0.05053,0.24078 -0.231775,0.23813 -0.522287,-0.009 -1.044575,-0.004 -1.566862,-0.002 -0.09631,0 -0.214577,-0.0214 -0.209815,0.13996 0.004,0.1442 0.102129,0.15267 0.209021,0.15267 h 0.944033 z m -0.01958,-1.95421 q -0.462492,0 -0.926042,0 c -0.11086,0 -0.216429,-0.002 -0.211666,0.16271 0.0045,0.15875 0.111125,0.14288 0.210343,0.14288 0.623094,0.002 1.246188,0 1.869546,0.001 0.101071,0 0.187061,-0.002 0.190236,-0.14261 0.0032,-0.14023 -0.07091,-0.16695 -0.188913,-0.16563 -0.314325,0.003 -0.629179,10e-4 -0.944033,10e-4 z m 0.02249,-3.79413 a 2.1082,2.1082 0 0 1 -2.14683,-1.64915 2.0550187,2.0550187 0 0 1 1.12395,-2.34103 2.301875,2.301875 0 0 1 2.702719,0.45561 1.9692937,1.9692937 0 0 1 0.542131,1.5629 2.0798896,2.0798896 0 0 1 -1.152789,1.71185 2.4643292,2.4643292 0 0 1 -1.069711,0.25956 z m 0.868362,7.40225 c -0.238125,0 -0.443177,0.008 -0.6477,-0.006 a 0.19023542,0.19023542 0 0 1 -0.127264,-0.1307 c -0.03863,-0.34528 0.101864,-0.53922 0.375443,-0.54107 a 0.36221458,0.36221458 0 0 1 0.398727,0.37412 c 0.0045,0.0921 7.94e-4,0.18494 7.94e-4,0.30374 z m -1.045104,0 c -0.193146,0 -0.386292,0.006 -0.578379,-0.006 a 0.15875,0.15875 0 0 1 -0.102923,-0.1143 c -0.01005,-0.13414 -0.03545,-0.30824 0.137848,-0.34607 a 0.69029792,0.69029792 0 0 1 0.427302,0.0339 0.3381375,0.3381375 0 0 1 0.116152,0.43207 z m -0.325437,4.0177 a 0.396875,0.396875 0 0 1 -0.07514,0 c -0.105833,-0.0214 -0.268023,0.0736 -0.276225,-0.14605 -0.0095,-0.25903 0.07938,-0.41884 0.26961,-0.44636 q 0.373857,-0.0529 0.449792,0.20082 c 0.09737,0.32782 0.03651,0.39264 -0.368035,0.39264 z"
       class="cls-1"
       inkscape:connector-curvature="0"
       style="fill-rule:evenodd;stroke-width:0.26458332" />
  </g>
</svg>
