
<!-- Created with Inkscape (http://www.inkscape.org/) -->

<svg
   xmlns:dc="http://purl.org/dc/elements/1.1/"
   xmlns:cc="http://creativecommons.org/ns#"
   xmlns:rdf="http://www.w3.org/1999/02/22-rdf-syntax-ns#"
   xmlns:svg="http://www.w3.org/2000/svg"
   xmlns="http://www.w3.org/2000/svg"
   xmlns:sodipodi="http://sodipodi.sourceforge.net/DTD/sodipodi-0.dtd"
   xmlns:inkscape="http://www.inkscape.org/namespaces/inkscape"
   width="300"
   height="130"
   viewBox="0 0 79.374998 34.395834"
   version="1.1"
   id="svg8"
   inkscape:version="0.92.2 (5c3e80d, 2017-08-06)"
   sodipodi:docname="25.svg">
  <defs
     id="defs2">
    <style
       id="style817">
      .cls-1 {
        fill: #898989;
        fill-rule: evenodd;
      }
    </style>
    <style
       id="style5148">
      .cls-1 {
        fill: #898989;
        fill-rule: evenodd;
      }
    </style>
    <style
       id="style5162">
      .cls-1 {
        fill: #898989;
      }

      .cls-1, .cls-2 {
        fill-rule: evenodd;
      }

      .cls-2 {
        fill: #cacaca;
      }
    </style>
    <style
       id="style5288">
      .cls-1 {
        fill: #898989;
        fill-rule: evenodd;
      }
    </style>
    <style
       id="style5302">
      .cls-1 {
        fill: #898989;
        fill-rule: evenodd;
      }
    </style>
    <style
       id="style5316">
      .cls-1 {
        fill: #898989;
        fill-rule: evenodd;
      }
    </style>
    <style
       id="style5330">
      .cls-1 {
        fill: #898989;
        fill-rule: evenodd;
      }
    </style>
    <style
       id="style5344">
      .cls-1 {
        fill: #898989;
        fill-rule: evenodd;
      }
    </style>
    <style
       id="style5358">
      .cls-1 {
        fill: #898989;
        fill-rule: evenodd;
      }
    </style>
    <style
       id="style5372">
      .cls-1 {
        fill: #898989;
        fill-rule: evenodd;
      }
    </style>
    <style
       id="style5386">
      .cls-1 {
        fill: #898989;
      }

      .cls-1, .cls-2 {
        fill-rule: evenodd;
      }

      .cls-2 {
        fill: #b0b0b0;
      }
    </style>
    <style
       id="style5404">
      .cls-1 {
        fill: #898989;
        fill-rule: evenodd;
      }
    </style>
    <style
       id="style5418">
      .cls-1 {
        fill: #898989;
        fill-rule: evenodd;
      }
    </style>
    <style
       id="style5432">
      .cls-1 {
        fill: #898989;
        fill-rule: evenodd;
      }
    </style>
    <style
       id="style5446">
      .cls-1 {
        fill: #898989;
        fill-rule: evenodd;
      }
    </style>
    <style
       id="style5460">
      .cls-1 {
        fill: #898989;
        fill-rule: evenodd;
      }
    </style>
    <style
       id="style5474">
      .cls-1 {
        fill: #898989;
        fill-rule: evenodd;
      }
    </style>
    <style
       id="style5488">
      .cls-1 {
        fill: #898989;
        fill-rule: evenodd;
      }
    </style>
    <style
       id="style5502">
      .cls-1 {
        fill: #898989;
        fill-rule: evenodd;
      }
    </style>
    <style
       id="style5516">
      .cls-1 {
        fill: #898989;
        fill-rule: evenodd;
      }
    </style>
    <style
       id="style5530">
      .cls-1 {
        fill: #898989;
        fill-rule: evenodd;
      }
    </style>
  </defs>
  <sodipodi:namedview
     id="base"
     pagecolor="#ffffff"
     bordercolor="#666666"
     borderopacity="1.0"
     inkscape:pageopacity="0.0"
     inkscape:pageshadow="2"
     inkscape:zoom="1.8101934"
     inkscape:cx="261.24198"
     inkscape:cy="43.948379"
     inkscape:document-units="mm"
     inkscape:current-layer="layer1"
     showgrid="false"
     showguides="false"
     units="px"
     inkscape:window-width="1680"
     inkscape:window-height="987"
     inkscape:window-x="-8"
     inkscape:window-y="-8"
     inkscape:window-maximized="1">
    <sodipodi:guide
       position="0,0"
       orientation="0,793.70079"
       id="guide829"
       inkscape:locked="false" />
    <sodipodi:guide
       position="210,0"
       orientation="-1122.5197,0"
       id="guide831"
       inkscape:locked="false" />
    <sodipodi:guide
       position="210,297"
       orientation="0,-793.70079"
       id="guide833"
       inkscape:locked="false" />
    <sodipodi:guide
       position="0,297"
       orientation="1122.5197,0"
       id="guide835"
       inkscape:locked="false" />
  </sodipodi:namedview>
  <metadata
     id="metadata5">
    <rdf:RDF>
      <cc:Work
         rdf:about="">
        <dc:format>image/svg+xml</dc:format>
        <dc:type
           rdf:resource="http://purl.org/dc/dcmitype/StillImage" />
        <dc:title></dc:title>
      </cc:Work>
    </rdf:RDF>
  </metadata>
  <g
     inkscape:label="Layer 1"
     inkscape:groupmode="layer"
     id="layer1"
     transform="translate(0,-262.60414)">
    <path
       id="path5534"
       d="m 24.741083,279.77943 v -8.43491 a 0.46540208,0.46540208 0 0 1 0.537104,-0.53367 h 6.925998 a 1.0922,1.0922 0 0 1 0.712258,0.272 c 0.285221,0.24103 0.553509,0.5027 0.818886,0.76729 0.635,0.62971 1.262856,1.2655 1.893887,1.89838 0.204259,0.20479 0.406665,0.41143 0.615686,0.61119 a 0.95646875,0.95646875 0 0 0 0.225425,0.15425 0.14472708,0.14472708 0 0 0 0.2159,-0.0979 0.52916667,0.52916667 0 0 0 0.0217,-0.15505 q 0.0024,-1.45177 0.0019,-2.9038 a 0.47175208,0.47175208 0 0 1 0.549539,-0.54716 h 16.886767 a 0.4556125,0.4556125 0 0 1 0.492919,0.47255 c 0.0016,0.0362 0,0.0725 0,0.10874 q 0,8.3857 0,16.77114 c 0,0.0529 0,0.10584 0,0.15875 a 0.44979167,0.44979167 0 0 1 -0.477573,0.47758 q -2.492904,0.006 -4.985279,0 a 0.46302083,0.46302083 0 0 1 -0.496888,-0.51277 c -0.0037,-0.30612 0,-0.61251 0,-0.91863 0,-0.66146 0.0029,-1.32292 0,-1.98437 a 0.26696458,0.26696458 0 0 0 -0.102923,-0.2884 0.24765,0.24765 0 0 0 -0.287867,0.0963 c -0.255852,0.24103 -0.504825,0.48948 -0.753533,0.73792 q -0.767292,0.76729 -1.530614,1.53644 a 0.40110833,0.40110833 0 0 1 -0.66675,-0.003 q -1.089025,-1.09299 -2.177786,-2.18546 a 1.0279062,1.0279062 0 0 0 -0.217752,-0.16721 0.16086667,0.16086667 0 0 0 -0.261408,0.12408 0.58208333,0.58208333 0 0 0 -0.0093,0.11774 c 0,0.96785 -0.0071,1.93596 0.0032,2.90381 a 0.55932917,0.55932917 0 0 1 -0.516996,0.54292 1.0874375,1.0874375 0 0 1 -0.137847,0.002 q -8.349721,0 -16.699707,0 a 1.0271125,1.0271125 0 0 1 -0.254,-0.0204 0.441325,0.441325 0 0 1 -0.322791,-0.42333 c -0.0053,-0.14473 0,-0.29104 0,-0.43445 q -0.0022,-4.07274 -0.0022,-8.14257 z m 17.102667,-1.40864 0.02275,0.005 v 0.0958 c 0,0.95779 0,1.91585 -0.0021,2.8739 a 0.09551458,0.09551458 0 0 0 0.119856,0.11695 c 0.134144,-0.006 0.269082,-0.005 0.403755,0 a 0.08255,0.08255 0 0 0 0.1016,-0.10213 q -0.0032,-2.11852 0,-4.23677 a 0.07725833,0.07725833 0 0 0 -0.0889,-0.0963 c -0.128059,0.002 -0.256382,0.003 -0.384175,0 a 0.13229167,0.13229167 0 0 0 -0.132292,0.0775 c -0.178065,0.30665 -0.360892,0.61066 -0.541867,0.91599 q -0.47625,0.80513 -0.954352,1.61105 a 0.78713542,0.78713542 0 0 1 -0.0471,0.0646 0.47413333,0.47413333 0 0 1 -0.0299,-0.0386 q -0.758031,-1.2745 -1.514475,-2.55006 a 0.14155208,0.14155208 0 0 0 -0.142081,-0.0794 c -0.118004,0.005 -0.236537,0.007 -0.354277,0 -0.0852,-0.005 -0.102923,0.0265 -0.102658,0.10742 q 0.0032,1.84203 0,3.68353 c 0,0.18521 0.0019,0.36883 0,0.55324 a 0.07117292,0.07117292 0 0 0 0.08414,0.0886 c 0.147638,-0.003 0.29554,0 0.443177,0 a 0.07752292,0.07752292 0 0 0 0.09287,-0.0929 q -0.0029,-1.46659 0,-2.93317 c 0,-0.023 0.0029,-0.0463 0.0056,-0.0823 0.0164,0.0209 0.02328,0.0281 0.02831,0.0362 0.396875,0.66146 0.79375,1.32503 1.194329,1.98437 0.170392,0.28046 0.0762,0.21776 0.38391,0.22649 a 0.02407708,0.02407708 0 0 0 0.0098,0 0.27225625,0.27225625 0 0 0 0.100012,-0.0614 c 0.289455,-0.47413 0.57494,-0.95038 0.860955,-1.42636 q 0.220927,-0.36963 0.443706,-0.74084 z m -13.057982,1.78462 -0.02514,0.008 -0.07541,-0.11192 q -0.94562,-1.40626 -1.892829,-2.81146 c -0.175948,-0.26009 -0.08228,-0.20558 -0.398991,-0.21167 -0.05927,0 -0.118534,0.005 -0.177271,0 a 0.09075208,0.09075208 0 0 0 -0.115094,0.11166 c 0.0045,0.20716 0,0.4146 0,0.62177 q 0,1.77271 0,3.54541 c 0,0.1569 0,0.1569 0.160073,0.15531 0.121444,-0.001 0.243152,-0.006 0.364331,-0.002 0.07937,0.002 0.09948,-0.0265 0.09922,-0.10398 q -0.004,-1.4613 -0.0018,-2.92259 v -0.16616 a 0.38232292,0.38232292 0 0 1 0.04313,0.0402 q 0.4191,0.62018 0.837671,1.24089 c 0.414073,0.61225 0.827088,1.22502 1.245129,1.83436 a 0.22172083,0.22172083 0 0 0 0.143669,0.0762 c 0.103717,0.0119 0.209815,0.002 0.314854,0.005 a 0.079375,0.079375 0 0 0 0.09604,-0.0976 q -0.0024,-2.12276 0,-4.24551 a 0.07434792,0.07434792 0 0 0 -0.09049,-0.0921 c -0.137848,0.005 -0.27596,0.006 -0.413543,0 a 0.09657292,0.09657292 0 0 0 -0.119328,0.11879 q 0.005,1.46077 0.0042,2.92233 v 0.0863 z m 5.471055,0.43497 c -0.06138,-0.18812 -0.115094,-0.34951 -0.166423,-0.51144 -0.178859,-0.56382 -0.355865,-1.12818 -0.537634,-1.69095 a 0.12170833,0.12170833 0 0 0 -0.08811,-0.0675 c -0.163777,-0.007 -0.328083,-0.002 -0.492389,-0.003 -0.07461,0 -0.08149,0.036 -0.06112,0.0953 0.118533,0.34819 0.235214,0.69718 0.355071,1.04511 0.220398,0.64002 0.443177,1.27926 0.661458,1.91955 a 0.10345208,0.10345208 0 0 0 0.112183,0.0852 c 0.128059,-0.003 0.256382,-0.003 0.384175,0 a 0.10980208,0.10980208 0 0 0 0.125148,-0.0926 c 0.189971,-0.5879 0.38444,-1.17448 0.577321,-1.76133 0.04313,-0.13229 0.08573,-0.26458 0.135202,-0.41619 0.01879,0.0445 0.0291,0.0646 0.03598,0.0857 q 0.1524,0.46858 0.304007,0.93742 c 0.121708,0.37862 0.243945,0.75698 0.363537,1.13612 a 0.12594167,0.12594167 0 0 0 0.145786,0.10954 c 0.07488,-0.007 0.151077,0 0.226483,0 0.224631,0 0.226219,0 0.300831,-0.21484 q 0.492125,-1.41579 0.983192,-2.83104 c 0.02434,-0.0699 0.0077,-0.0992 -0.06694,-0.0984 -0.164041,0.002 -0.328348,-0.003 -0.492389,0.004 a 0.12038542,0.12038542 0 0 0 -0.08255,0.0717 c -0.173038,0.53472 -0.341842,1.07077 -0.511705,1.60655 -0.06059,0.19156 -0.121708,0.38285 -0.1905,0.59849 -0.06588,-0.20215 -0.124354,-0.37942 -0.181768,-0.55695 q -0.264584,-0.81624 -0.526786,-1.63301 a 0.10583333,0.10583333 0 0 0 -0.116681,-0.0921 c -0.127794,0.004 -0.256381,-0.003 -0.38391,0.005 a 0.123825,0.123825 0 0 0 -0.09102,0.0656 c -0.182298,0.54531 -0.359569,1.09194 -0.537898,1.63857 -0.05689,0.18044 -0.115358,0.36063 -0.182033,0.56647 z m 14.23035,0.62548 c 0,0.0691 0.0019,0.10795 0,0.14658 a 0.079375,0.079375 0 0 0 0.09948,0.0963 c 0.124619,-0.003 0.249502,0 0.374121,0.004 a 0.08202083,0.08202083 0 0 0 0.09684,-0.10001 q -0.0024,-2.18679 0,-4.37383 a 0.08307917,0.08307917 0 0 0 -0.105833,-0.0979 c -0.127794,0.005 -0.256117,0.006 -0.383911,0 -0.09049,-0.004 -0.117739,0.0265 -0.116681,0.11774 0.0045,0.47625 0.0021,0.95435 0.0021,1.43166 0,0.0251 -0.0021,0.0503 -0.0037,0.0826 -0.08758,-0.0466 -0.165365,-0.0944 -0.248444,-0.13044 a 1.5935854,1.5935854 0 0 0 -0.867569,-0.11112 1.0755312,1.0755312 0 0 0 -0.999331,0.97896 7.4128312,7.4128312 0 0 0 0,1.28005 0.98821875,0.98821875 0 0 0 0.442648,0.7493 1.42875,1.42875 0 0 0 1.07606,0.195 1.4438312,1.4438312 0 0 0 0.634736,-0.26855 z m 4.275666,0.007 a 0.47968958,0.47968958 0 0 1 0.04233,0.0397 0.64187917,0.64187917 0 0 0 0.606689,0.22913 c 0.235479,-0.0265 0.234686,-0.032 0.23495,-0.27067 0,-0.01 0,-0.0198 0,-0.0296 0.0016,-0.22543 0.0042,-0.18521 -0.182562,-0.18733 A 0.168275,0.168275 0 0 1 53.2584,280.79798 q 0,-0.66622 0,-1.3327 a 1.3006917,1.3006917 0 0 0 -0.256646,-0.84164 1.2435417,1.2435417 0 0 0 -1.287727,-0.30877 1.5777104,1.5777104 0 0 0 -0.823648,0.62653 0.06852708,0.06852708 0 0 0 0.01561,0.11456 c 0.06165,0.0437 0.120121,0.0916 0.179388,0.13838 0.15875,0.12621 0.15875,0.12541 0.289454,-0.0304 a 0.88397292,0.88397292 0 0 1 0.816504,-0.36195 0.454025,0.454025 0 0 1 0.426244,0.37492 1.9118792,1.9118792 0 0 1 0.0299,0.34184 0.08995833,0.08995833 0 0 1 -0.06324,0.0587 c -0.07461,0.007 -0.150812,0 -0.226218,0.003 a 2.6580042,2.6580042 0 0 0 -1.019175,0.18759 0.9318625,0.9318625 0 0 0 -0.502709,1.16893 0.83158542,0.83158542 0 0 0 0.672042,0.54346 1.5927917,1.5927917 0 0 0 1.255183,-0.25665 z m -22.161235,-1.22647 c 0.04736,-0.003 0.06985,-0.007 0.09234,-0.007 0.608542,0 1.214702,0 1.821921,0.004 0.08387,0 0.119327,-0.0188 0.115887,-0.10901 -0.0064,-0.16748 0.0079,-0.33655 -0.0058,-0.5027 a 1.1284479,1.1284479 0 0 0 -0.568589,-0.92605 1.5245292,1.5245292 0 0 0 -0.998538,-0.17198 1.1641667,1.1641667 0 0 0 -1.053835,1.10596 c -0.0079,0.33232 -0.01138,0.66517 0.0026,0.99722 a 1.0596562,1.0596562 0 0 0 0.573087,0.93927 1.6266583,1.6266583 0 0 0 1.362869,0.0839 1.1766021,1.1766021 0 0 0 0.693473,-0.71226 0.0746125,0.0746125 0 0 0 -0.05001,-0.11906 c -0.104246,-0.0392 -0.205052,-0.0873 -0.306917,-0.13229 a 0.08228542,0.08228542 0 0 0 -0.127,0.0444 0.85830833,0.85830833 0 0 1 -1.112843,0.43614 0.54080833,0.54080833 0 0 1 -0.401637,-0.43206 4.3984333,4.3984333 0 0 1 -0.03651,-0.49795 z m 14.118431,-0.008 v 0.002 c 0.308504,0 0.617273,0 0.926042,0 a 0.0777875,0.0777875 0 0 0 0.09578,-0.096 c -0.0056,-0.16113 0.0058,-0.32306 -0.0029,-0.48393 a 1.1189229,1.1189229 0 0 0 -0.569383,-0.95593 1.4800792,1.4800792 0 0 0 -0.989012,-0.17172 1.1601979,1.1601979 0 0 0 -1.066536,1.15702 c -0.0087,0.28946 -0.0037,0.57944 0,0.86916 a 1.1570229,1.1570229 0 0 0 0.257969,0.74956 1.3229167,1.3229167 0 0 0 1.049602,0.45112 1.2670896,1.2670896 0 0 0 1.329531,-0.81412 c 0.02646,-0.059 0.0217,-0.0879 -0.04048,-0.11245 -0.112712,-0.0447 -0.222779,-0.0961 -0.333904,-0.14526 a 0.07011458,0.07011458 0 0 0 -0.102923,0.0381 1.3909146,1.3909146 0 0 1 -0.194998,0.28178 0.88000417,0.88000417 0 0 1 -0.901171,0.17648 0.56594375,0.56594375 0 0 1 -0.379677,-0.30586 1.2771437,1.2771437 0 0 1 -0.0762,-0.54186 c -0.0034,-0.0794 0.02646,-0.10081 0.102394,-0.10002 0.29845,0.004 0.597429,0.002 0.896408,0.002 z m 5.552017,-0.09 v 0 q 0,-0.72575 0,-1.45177 c 0,-0.1262 -0.0048,-0.13044 -0.12409,-0.13017 -0.119327,2.6e-4 -0.243152,0.005 -0.364331,0 -0.08837,-0.005 -0.112713,0.0304 -0.112448,0.11456 q 0.0037,1.46685 0,2.93344 a 0.08519583,0.08519583 0 0 0 0.105833,0.0997 c 0.128059,-0.003 0.256382,-0.007 0.384175,0 0.08784,0.004 0.111919,-0.0265 0.111125,-0.11219 -0.0019,-0.48524 0.0011,-0.96917 0.0011,-1.45309 z m -23.094421,6.3336 c 0.01376,0.0445 0.01958,0.063 0.02514,0.0815 0.102923,0.34396 0.209021,0.68553 0.306917,1.03002 0.02778,0.0982 0.09472,0.0818 0.16166,0.0828 0.06191,0 0.121444,0.0103 0.143404,-0.0794 0.03466,-0.13996 0.08308,-0.27675 0.124884,-0.41513 q 0.166158,-0.55218 0.330464,-1.10463 a 0.10186458,0.10186458 0 0 0 -0.0077,-0.0818 0.22119167,0.22119167 0 0 0 -0.272521,0.0717 c -0.07937,0.27464 -0.154781,0.54981 -0.232568,0.82471 -0.0291,0.10266 -0.05953,0.20505 -0.09657,0.33311 -0.0164,-0.0471 -0.02434,-0.0669 -0.03043,-0.0876 -0.103717,-0.35666 -0.21008,-0.71252 -0.308505,-1.0705 a 0.12065,0.12065 0 0 0 -0.149489,-0.0868 0.11535833,0.11535833 0 0 0 -0.141288,0.0873 c -0.04577,0.17462 -0.09578,0.34819 -0.146843,0.52122 -0.059,0.20029 -0.12065,0.39953 -0.189442,0.62707 -0.01746,-0.0529 -0.02646,-0.0781 -0.03466,-0.10451 -0.09075,-0.32253 -0.179388,-0.64585 -0.272786,-0.96758 -0.04842,-0.1659 -0.05292,-0.16484 -0.22516,-0.16272 h -0.01879 a 0.05291667,0.05291667 0 0 0 -0.06271,0.0794 c 0.0209,0.0725 0.04339,0.14473 0.06482,0.21696 0.128852,0.43445 0.256381,0.86916 0.387879,1.30254 a 0.14657917,0.14657917 0 0 0 0.07117,0.0921 0.17674167,0.17674167 0 0 0 0.258498,-0.1442 c 0.0037,-0.0127 0.0066,-0.0265 0.01058,-0.0381 z m 6.707981,0.045 c -0.04418,-0.0185 -0.07038,-0.0315 -0.09737,-0.041 a 0.49080208,0.49080208 0 0 0 -0.692944,0.32252 1.7774708,1.7774708 0 0 0 0,0.52044 0.40772292,0.40772292 0 0 0 0.423334,0.36168 2.479675,2.479675 0 0 0 0.374914,-0.0553 c 0.03757,0.081 0.129646,0.0413 0.20373,0.0315 a 0.19314583,0.19314583 0 0 0 0.04233,-0.12991 c 0.0026,-0.49662 0,-0.99324 0.0026,-1.48987 0,-0.0863 -0.02461,-0.12091 -0.111125,-0.11483 -0.07382,0.005 -0.154782,-0.0177 -0.148167,0.10795 0.0093,0.15743 0.0032,0.31512 0.0032,0.48737 z m 4.969669,1.09378 c 0.04921,0.0183 0.08229,0.0307 0.115623,0.0423 a 0.48154167,0.48154167 0 0 0 0.674423,-0.34026 1.5713604,1.5713604 0 0 0 0,-0.50032 0.409575,0.409575 0 0 0 -0.44794,-0.37042 2.441575,2.441575 0 0 0 -0.351102,0.0529 c 0.005,0.006 -0.0037,-0.0151 -0.01508,-0.0167 a 1.1173354,1.1173354 0 0 0 -0.189706,-0.0159 0.0889,0.0889 0 0 0 -0.03784,0.0675 c -0.0026,0.47043 -0.0021,0.94112 -0.0037,1.41182 a 0.06852708,0.06852708 0 0 0 0.0844,0.0794 0.37041667,0.37041667 0 0 1 0.05927,0 0.08757708,0.08757708 0 0 0 0.113771,-0.11033 c -0.0069,-0.0915 -0.0016,-0.18679 -0.0016,-0.29818 z m -3.688292,-1.12368 c 0,0.009 0,0.0188 -0.0019,0.0283 a 0.08942917,0.08942917 0 0 0 -0.03069,-0.0341 1.1437937,1.1437937 0 0 0 -0.189441,-0.019 0.09710208,0.09710208 0 0 0 -0.03387,0.0701 c -0.0026,0.47043 -0.0021,0.94086 -0.0037,1.41129 a 0.06773333,0.06773333 0 0 0 0.08414,0.0794 0.65696042,0.65696042 0 0 1 0.08837,0 0.07170208,0.07170208 0 0 0 0.08678,-0.0876 c -0.0032,-0.10584 0,-0.20902 0,-0.32676 l 0.09789,0.0384 a 0.48445208,0.48445208 0 0 0 0.687917,-0.33787 2.0997333,2.0997333 0 0 0 -0.005,-0.52017 0.38549792,0.38549792 0 0 0 -0.377296,-0.34184 2.7125083,2.7125083 0 0 0 -0.402696,0.0405 z m -2.282296,0.62865 v 0 c 0,-0.0857 0.0045,-0.17145 0,-0.25665 a 0.40851667,0.40851667 0 0 0 -0.250031,-0.39105 0.555625,0.555625 0 0 0 -0.635,0.19129 c -0.04313,0.0529 -0.04577,0.0905 0.01482,0.1278 0.05027,0.0309 0.08652,0.10927 0.160602,0.023 a 0.47254583,0.47254583 0 0 1 0.168275,-0.12806 0.19341042,0.19341042 0 0 1 0.278077,0.14393 c 0.01085,0.0699 0,0.10107 -0.08784,0.10927 a 1.6764,1.6764 0 0 0 -0.418041,0.0881 0.34581042,0.34581042 0 0 0 0.0064,0.61648 0.555625,0.555625 0 0 0 0.493183,-0.0233 0.13229167,0.13229167 0 0 1 0.122502,0.007 0.67971458,0.67971458 0 0 0 0.241829,0.04 c 0.07461,-0.002 0.06191,-0.0773 0.05292,-0.12489 a 0.1016,0.1016 0 0 0 -0.06747,-0.0688 0.079375,0.079375 0 0 1 -0.08096,-0.0974 c 0.0021,-0.0849 0.0013,-0.17065 0.0013,-0.25611 z m -4.043362,0 v 0 c 0.105833,0 0.210344,0.004 0.315119,-0.003 a 0.09710208,0.09710208 0 0 0 0.07303,-0.0542 0.51382083,0.51382083 0 0 0 -0.192617,-0.52705 0.55774167,0.55774167 0 0 0 -0.60669,-0.018 0.37279792,0.37279792 0 0 0 -0.201877,0.28866 3.0710187,3.0710187 0 0 0 -0.01508,0.41275 0.44397083,0.44397083 0 0 0 0.364067,0.45297 0.53604583,0.53604583 0 0 0 0.636587,-0.26273 0.10265833,0.10265833 0 0 0 0.0093,-0.0794 0.14525625,0.14525625 0 0 0 -0.228864,0 0.31035625,0.31035625 0 0 1 -0.358246,0.11404 0.238125,0.238125 0 0 1 -0.165629,-0.2413 c -0.0032,-0.0566 0.01191,-0.086 0.07567,-0.0836 0.09895,0.004 0.197379,10e-4 0.296069,10e-4 z m 7.94385,0 v 0 c 0.1016,0 0.203464,0 0.305064,0 a 0.07381875,0.07381875 0 0 0 0.08546,-0.0818 0.51673125,0.51673125 0 0 0 -0.647171,-0.58552 0.43867917,0.43867917 0 0 0 -0.368829,0.3855 2.0235333,2.0235333 0 0 0 -0.0026,0.43286 0.447675,0.447675 0 0 0 0.438944,0.41433 0.51461458,0.51461458 0 0 0 0.561975,-0.28839 0.08995833,0.08995833 0 0 0 -0.005,-0.0775 0.13440833,0.13440833 0 0 0 -0.228336,0.0198 0.307975,0.307975 0 0 1 -0.353483,0.10028 0.22145625,0.22145625 0 0 1 -0.160867,-0.24157 0.06402917,0.06402917 0 0 1 0.07937,-0.0794 c 0.09922,0.004 0.197644,0.002 0.296069,0.002 z m 4.138877,0 v 0.002 c 0.05583,0 0.111654,0 0.167481,0 0.221986,0 0.221986,0 0.213784,-0.22067 a 0.46487292,0.46487292 0 0 0 -0.432859,-0.45534 0.473075,0.473075 0 0 0 -0.564356,0.35692 1.825625,1.825625 0 0 0 -0.0164,0.35348 0.51726042,0.51726042 0 0 0 0.757502,0.48975 0.44000208,0.44000208 0 0 0 0.243152,-0.24422 0.09710208,0.09710208 0 0 0 -0.0087,-0.0855 0.12779375,0.12779375 0 0 0 -0.218546,0.0241 0.31088542,0.31088542 0 0 1 -0.353483,0.10028 0.22436667,0.22436667 0 0 1 -0.161661,-0.24157 0.06429375,0.06429375 0 0 1 0.07938,-0.0794 c 0.09816,0.003 0.19685,5.3e-4 0.295275,5.3e-4 z m -9.503569,0 v 0 c 0.101865,0 0.203729,0.005 0.305065,-0.003 a 0.10239375,0.10239375 0 0 0 0.07435,-0.0632 0.51487917,0.51487917 0 0 0 -0.214313,-0.53472 0.55774167,0.55774167 0 0 0 -0.61251,0.0241 0.46751875,0.46751875 0 0 0 -0.156898,0.23627 2.0026312,2.0026312 0 0 0 -0.02646,0.42995 0.44000208,0.44000208 0 0 0 0.343958,0.45799 0.53366458,0.53366458 0 0 0 0.657225,-0.26829 0.09498542,0.09498542 0 0 0 0,-0.0778 0.1397,0.1397 0 0 0 -0.229129,0.0175 0.31115,0.31115 0 0 1 -0.353219,0.10319 0.2365375,0.2365375 0 0 1 -0.163512,-0.24342 c -0.0021,-0.0529 0.01297,-0.0794 0.07091,-0.0794 0.1016,0.004 0.203465,0.002 0.305065,0.002 z m 6.99479,-0.0852 a 1.3001625,1.3001625 0 0 0 -0.04921,-0.31617 0.54186667,0.54186667 0 0 0 -0.673629,-0.25295 0.44502917,0.44502917 0 0 0 -0.348721,0.46541 q -0.004,0.12779 0,0.25611 a 0.46619583,0.46619583 0 0 0 0.461169,0.49901 0.50588333,0.50588333 0 0 0 0.578644,-0.3175 1.952625,1.952625 0 0 0 0.03228,-0.33232 z m 11.858096,-9.48531 h -0.0029 c 0,-0.11192 -0.0019,-0.22384 0,-0.33576 a 0.06561667,0.06561667 0 0 0 -0.08281,-0.0775 c -0.141023,0.004 -0.282311,0.006 -0.423334,0 a 0.07434792,0.07434792 0 0 0 -0.09102,0.0916 q 0.004,0.3175 0,0.63209 a 0.07249583,0.07249583 0 0 0 0.08599,0.0884 c 0.141288,-0.002 0.282575,-0.004 0.423334,0 a 0.07646458,0.07646458 0 0 0 0.09049,-0.0947 c 2.65e-4,-0.0997 2.65e-4,-0.20188 2.65e-4,-0.30401 z m -20.087961,9.00589 c -0.01667,-0.14102 -0.110066,-0.0926 -0.175948,-0.0889 a 0.098425,0.098425 0 0 0 -0.06509,0.0712 c -0.0042,0.3519 -0.0024,0.70379 -0.0032,1.05569 a 0.06429375,0.06429375 0 0 0 0.07488,0.0778 0.48683333,0.48683333 0 0 1 0.07938,0 c 0.07593,0.008 0.105834,-0.0209 0.101865,-0.10107 -0.0061,-0.16749 -0.0056,-0.33523 -0.0024,-0.50271 a 0.65748958,0.65748958 0 0 1 0.02805,-0.17383 0.25691042,0.25691042 0 0 1 0.345546,-0.18389 0.15583958,0.15583958 0 0 0 0.07064,0.008 0.67415833,0.67415833 0 0 0 0.04842,-0.17621 0.10847917,0.10847917 0 0 0 -0.06615,-0.0688 0.41671875,0.41671875 0 0 0 -0.434975,0.0831 z m 9.6647,0.23812 c 0,0.26009 0.0024,0.52017 0,0.78026 0,0.0699 0.01323,0.10848 0.09128,0.099 a 0.57917292,0.57917292 0 0 1 0.08837,-0.002 c 0.059,0.002 0.07752,-0.0246 0.07726,-0.0844 q -0.0024,-0.78978 0,-1.58009 a 0.06402917,0.06402917 0 0 0 -0.07329,-0.0794 0.66145833,0.66145833 0 0 1 -0.08864,0 c -0.07302,-0.009 -0.09763,0.0206 -0.09657,0.0947 0.0048,0.25797 0.0024,0.51488 0.0026,0.77152 z m 8.602134,-6.66088 c 0,0.20717 0.0032,0.4146 -0.0024,0.62177 a 0.23547917,0.23547917 0 0 1 -0.05292,0.13838 1.0620375,1.0620375 0 0 1 -1.084792,0.27358 0.5207,0.5207 0 0 1 -0.374385,-0.46382 10.566929,10.566929 0 0 1 0,-1.13242 0.54504167,0.54504167 0 0 1 0.47625,-0.49212 1.0496021,1.0496021 0 0 1 0.941387,0.24977 0.26458333,0.26458333 0 0 1 0.0971,0.22277 c -0.0085,0.19368 -0.0026,0.38788 -0.0026,0.58209 v 0 z m 4.197614,0.52678 a 0.3508375,0.3508375 0 0 0 0,0.0688 0.3286125,0.3286125 0 0 1 -0.218281,0.37889 1.0236729,1.0236729 0 0 1 -0.807244,0.0931 0.38470417,0.38470417 0 0 1 -0.127794,-0.64135 0.81306458,0.81306458 0 0 1 0.496623,-0.19156 c 0.188119,-0.0212 0.379148,-0.0159 0.56859,-0.0265 a 0.07196667,0.07196667 0 0 1 0.08864,0.0915 c -0.0037,0.0754 0,0.15108 0,0.22675 v 0 z m -21.310071,-0.91219 c -0.213254,0 -0.426508,-0.003 -0.639762,0 a 0.07249583,0.07249583 0 0 1 -0.08837,-0.091 0.58340625,0.58340625 0 0 1 0.458258,-0.58949 0.873125,0.873125 0 0 1 0.760942,0.11721 0.63076667,0.63076667 0 0 1 0.235479,0.47863 c 0.0074,0.0672 -0.02461,0.0833 -0.08678,0.0826 -0.213254,-0.003 -0.426508,0 -0.639762,0 v 0.002 z m 13.107988,0 c -0.209815,0 -0.419629,-0.003 -0.629179,0 -0.07937,0.002 -0.100542,-0.0265 -0.09578,-0.10319 a 0.58446458,0.58446458 0 0 1 0.478896,-0.58209 0.83237917,0.83237917 0 0 1 0.786077,0.15875 0.62917917,0.62917917 0 0 1 0.1905,0.45932 c 0.0034,0.064 -0.03493,0.0661 -0.08202,0.0661 -0.216165,0 -0.43233,0 -0.648494,0 v 0 z m -10.562961,7.3226 c 0,0.046 0,0.0918 0,0.13785 a 0.24156458,0.24156458 0 0 1 -0.264583,0.24448 0.22754167,0.22754167 0 0 1 -0.2794,-0.2286 c -0.0042,-0.11139 -0.005,-0.22331 0.0016,-0.33444 a 0.20769792,0.20769792 0 0 1 0.199761,-0.20558 0.31485417,0.31485417 0 0 1 0.334697,0.13229 1.20015,1.20015 0 0 1 0.0037,0.25453 h 0.0056 z m 4.969669,-0.0137 v -0.12674 a 0.24209375,0.24209375 0 0 1 0.291042,-0.24765 0.22330833,0.22330833 0 0 1 0.254529,0.23495 c 0.0037,0.10583 0.0045,0.21008 0,0.31485 a 0.21166667,0.21166667 0 0 1 -0.167746,0.21379 0.33787292,0.33787292 0 0 1 -0.360098,-0.11563 1.2295187,1.2295187 0 0 1 -0.0217,-0.27199 z m -3.68935,0.008 a 1.1967104,1.1967104 0 0 0 0,-0.15717 0.1603375,0.1603375 0 0 1 0.120386,-0.18838 0.67865625,0.67865625 0 0 1 0.257439,-0.0265 0.18203333,0.18203333 0 0 1 0.15875,0.19474 c 0.0048,0.095 0.0024,0.18997 0.0024,0.28522 a 0.25955625,0.25955625 0 0 1 -0.396875,0.25638 0.18970625,0.18970625 0 0 1 -0.141287,-0.21722 1.0136187,1.0136187 0 0 0 -2.65e-4,-0.14605 z m -2.643716,0.0765 a 0.21801667,0.21801667 0 0 1 0.09578,0.0569 0.17859375,0.17859375 0 0 1 -0.04419,0.20664 0.30903333,0.30903333 0 0 1 -0.2794,0.0492 0.16695208,0.16695208 0 0 1 -0.10213,-0.096 0.16298333,0.16298333 0 0 1 0.06191,-0.13679 1.4628812,1.4628812 0 0 1 0.269082,-0.0796 z m -3.545417,-0.24595 h -0.493183 a 0.20663958,0.20663958 0 0 1 0.240506,-0.2241 0.21695833,0.21695833 0 0 1 0.252677,0.22516 z m 7.941998,0.002 h -0.491861 a 0.155575,0.155575 0 0 1 0.07356,-0.17754 0.29897917,0.29897917 0 0 1 0.3175,-0.0122 0.17700625,0.17700625 0 0 1 0.100806,0.19077 z m 4.137554,0 h -0.49239 a 0.15875,0.15875 0 0 1 0.07012,-0.1786 0.29553958,0.29553958 0 0 1 0.3175,-0.01 0.17541875,0.17541875 0 0 1 0.104775,0.18997 z m -9.995429,-0.002 a 0.20584583,0.20584583 0 0 1 0.229658,-0.22384 0.2206625,0.2206625 0 0 1 0.261938,0.22384 z m 7.086335,0.17383 c 0,0.0593 0.0037,0.1188 0,0.17754 a 0.21484167,0.21484167 0 0 1 -0.228071,0.20981 0.23283333,0.23283333 0 0 1 -0.298185,-0.17198 2.0290896,2.0290896 0 0 1 0,-0.44079 0.24050625,0.24050625 0 0 1 0.302419,-0.17066 0.22225,0.22225 0 0 1 0.22225,0.20876 c 0.0048,0.0622 0,0.12488 0,0.18732 v 0 z"
       class="cls-1"
       inkscape:connector-curvature="0"
       style="fill-rule:evenodd;stroke-width:0.26458332" />
  </g>
</svg>
