
<!-- Created with Inkscape (http://www.inkscape.org/) -->

<svg
   xmlns:dc="http://purl.org/dc/elements/1.1/"
   xmlns:cc="http://creativecommons.org/ns#"
   xmlns:rdf="http://www.w3.org/1999/02/22-rdf-syntax-ns#"
   xmlns:svg="http://www.w3.org/2000/svg"
   xmlns="http://www.w3.org/2000/svg"
   xmlns:sodipodi="http://sodipodi.sourceforge.net/DTD/sodipodi-0.dtd"
   xmlns:inkscape="http://www.inkscape.org/namespaces/inkscape"
   width="300"
   height="130"
   viewBox="0 0 79.374998 34.395834"
   version="1.1"
   id="svg8"
   inkscape:version="0.92.2 (5c3e80d, 2017-08-06)"
   sodipodi:docname="26.svg">
  <defs
     id="defs2">
    <style
       id="style817">
      .cls-1 {
        fill: #898989;
        fill-rule: evenodd;
      }
    </style>
    <style
       id="style5148">
      .cls-1 {
        fill: #898989;
        fill-rule: evenodd;
      }
    </style>
    <style
       id="style5162">
      .cls-1 {
        fill: #898989;
      }

      .cls-1, .cls-2 {
        fill-rule: evenodd;
      }

      .cls-2 {
        fill: #cacaca;
      }
    </style>
    <style
       id="style5288">
      .cls-1 {
        fill: #898989;
        fill-rule: evenodd;
      }
    </style>
    <style
       id="style5302">
      .cls-1 {
        fill: #898989;
        fill-rule: evenodd;
      }
    </style>
    <style
       id="style5316">
      .cls-1 {
        fill: #898989;
        fill-rule: evenodd;
      }
    </style>
    <style
       id="style5330">
      .cls-1 {
        fill: #898989;
        fill-rule: evenodd;
      }
    </style>
    <style
       id="style5344">
      .cls-1 {
        fill: #898989;
        fill-rule: evenodd;
      }
    </style>
    <style
       id="style5358">
      .cls-1 {
        fill: #898989;
        fill-rule: evenodd;
      }
    </style>
    <style
       id="style5372">
      .cls-1 {
        fill: #898989;
        fill-rule: evenodd;
      }
    </style>
    <style
       id="style5386">
      .cls-1 {
        fill: #898989;
      }

      .cls-1, .cls-2 {
        fill-rule: evenodd;
      }

      .cls-2 {
        fill: #b0b0b0;
      }
    </style>
    <style
       id="style5404">
      .cls-1 {
        fill: #898989;
        fill-rule: evenodd;
      }
    </style>
    <style
       id="style5418">
      .cls-1 {
        fill: #898989;
        fill-rule: evenodd;
      }
    </style>
    <style
       id="style5432">
      .cls-1 {
        fill: #898989;
        fill-rule: evenodd;
      }
    </style>
    <style
       id="style5446">
      .cls-1 {
        fill: #898989;
        fill-rule: evenodd;
      }
    </style>
    <style
       id="style5460">
      .cls-1 {
        fill: #898989;
        fill-rule: evenodd;
      }
    </style>
    <style
       id="style5474">
      .cls-1 {
        fill: #898989;
        fill-rule: evenodd;
      }
    </style>
    <style
       id="style5488">
      .cls-1 {
        fill: #898989;
        fill-rule: evenodd;
      }
    </style>
    <style
       id="style5502">
      .cls-1 {
        fill: #898989;
        fill-rule: evenodd;
      }
    </style>
    <style
       id="style5516">
      .cls-1 {
        fill: #898989;
        fill-rule: evenodd;
      }
    </style>
    <style
       id="style5530">
      .cls-1 {
        fill: #898989;
        fill-rule: evenodd;
      }
    </style>
    <style
       id="style5544">
      .cls-1 {
        fill: #898989;
        fill-rule: evenodd;
      }
    </style>
    <style
       id="style5558">
      .cls-1 {
        fill: #898989;
      }

      .cls-1, .cls-2, .cls-3 {
        fill-rule: evenodd;
      }

      .cls-2 {
        fill: #adadad;
      }

      .cls-3 {
        fill: #c1c1c1;
      }
    </style>
    <style
       id="style5578">
      .cls-1 {
        fill: #898989;
        fill-rule: evenodd;
      }
    </style>
    <style
       id="style5591">
      .cls-1 {
        fill: #898989;
        fill-rule: evenodd;
      }
    </style>
    <style
       id="style5605">
      .cls-1 {
        fill: #898989;
      }

      .cls-1, .cls-2 {
        fill-rule: evenodd;
      }

      .cls-2 {
        fill: #cacaca;
      }
    </style>
    <style
       id="style817-0">
      .cls-1 {
        fill: #898989;
        fill-rule: evenodd;
      }
    </style>
    <style
       id="style5148-5">
      .cls-1 {
        fill: #898989;
        fill-rule: evenodd;
      }
    </style>
  </defs>
  <sodipodi:namedview
     id="base"
     pagecolor="#ffffff"
     bordercolor="#666666"
     borderopacity="1.0"
     inkscape:pageopacity="0.0"
     inkscape:pageshadow="2"
     inkscape:zoom="1.8101934"
     inkscape:cx="261.24198"
     inkscape:cy="43.948379"
     inkscape:document-units="mm"
     inkscape:current-layer="layer1"
     showgrid="false"
     showguides="false"
     units="px"
     inkscape:window-width="1680"
     inkscape:window-height="987"
     inkscape:window-x="-8"
     inkscape:window-y="-8"
     inkscape:window-maximized="1">
    <sodipodi:guide
       position="0,0"
       orientation="0,793.70079"
       id="guide829"
       inkscape:locked="false" />
    <sodipodi:guide
       position="210,0"
       orientation="-1122.5197,0"
       id="guide831"
       inkscape:locked="false" />
    <sodipodi:guide
       position="210,297"
       orientation="0,-793.70079"
       id="guide833"
       inkscape:locked="false" />
    <sodipodi:guide
       position="0,297"
       orientation="1122.5197,0"
       id="guide835"
       inkscape:locked="false" />
  </sodipodi:namedview>
  <metadata
     id="metadata5">
    <rdf:RDF>
      <cc:Work
         rdf:about="">
        <dc:format>image/svg+xml</dc:format>
        <dc:type
           rdf:resource="http://purl.org/dc/dcmitype/StillImage" />
        <dc:title></dc:title>
      </cc:Work>
    </rdf:RDF>
  </metadata>
  <g
     inkscape:label="Layer 1"
     inkscape:groupmode="layer"
     id="layer1"
     transform="translate(0,-262.60414)">
    <path
       id="path5548"
       d="m 66.121227,278.15186 a 1.2718521,1.2718521 0 0 0 -1.149615,-0.70644 1.1781896,1.1781896 0 0 0 -1.243541,1.1602 c 0,0.65061 0.447939,0.92948 0.966523,1.16575 l 0.271991,0.12091 c 0.41275,0.19315 0.81624,0.37042 0.81624,0.9062 a 0.90355208,0.90355208 0 0 1 -0.913077,0.88874 0.92604167,0.92604167 0 0 1 -0.890588,-0.84667 l -0.483393,0.13838 a 1.3996458,1.3996458 0 0 0 2.782358,-0.20161 c 0,-0.009 0,-0.0175 0,-0.0265 0,-0.72496 -0.488685,-1.02262 -1.066271,-1.28191 l -0.292894,-0.13573 c -0.301095,-0.13944 -0.695589,-0.32068 -0.695589,-0.71305 a 0.714375,0.714375 0 0 1 0.736335,-0.7075 0.82179583,0.82179583 0 0 1 0.767292,0.49557 z m -6.360319,-0.15611 h 1.088232 v -0.47122 h -2.655888 v 0.47122 h 1.073415 v 4.08384 h 0.495035 v -4.08384 z m -7.036593,3.61262 v -3.61262 h 0.362479 a 1.8817167,1.8817167 0 0 1 1.379273,0.44053 1.8184812,1.8184812 0 0 1 -1.382713,3.16812 z m -0.4953,0.47122 h 0.825235 c 0.69559,0 1.226079,-0.0929 1.756569,-0.57361 a 2.3788687,2.3788687 0 0 0 -0.01191,-3.43218 c -0.52414,-0.45905 -1.066271,-0.54927 -1.732757,-0.54927 h -0.837406 v 4.55506 z m -7.538244,0 h 0.495035 v -3.51022 l 3.466042,3.71845 v -4.7625 h -0.4953 v 3.53245 l -3.466042,-3.72586 z m -4.137819,-1.76635 h -1.504421 l 0.760942,-1.82563 z m 0.194204,0.47043 0.524934,1.29301 h 0.544247 l -1.994958,-4.76964 -2.051314,4.77255 h 0.543983 l 0.536046,-1.29301 z m -6.637866,-3.25914 h -0.495036 v 4.55506 h 1.722967 v -0.47122 H 34.10929 Z m -5.291667,2.60297 v 1.95209 h 0.495035 v -1.95209 l 1.455209,-2.60297 h -0.57203 l -1.131622,2.03015 -1.131888,-2.03015 h -0.571235 z m -6.561667,1.95209 h 2.304256 v -0.47122 h -1.813983 v -1.78779 h 1.756304 v -0.47122 h -1.751012 v -1.35361 h 1.813719 v -0.47122 h -2.309813 v 4.55506 z m -8.623564,-4.55506 h -0.535517 l 1.703917,4.79107 1.43801,-3.66818 1.437481,3.66818 1.703652,-4.79107 h -0.535781 l -1.167871,3.41312 -1.437481,-3.64913 -1.43801,3.64966 z"
       class="cls-1"
       inkscape:connector-curvature="0"
       style="fill-rule:evenodd;stroke-width:0.26458332" />
    <g
       id="g5576"
       transform="matrix(0.26458333,0,0,0.26458333,51.520575,230.75066)">
      <path
         id="path5562"
         transform="translate(-324.031,-275)"
         d="m 476,307.643 a 19.792,19.792 0 0 1 -3.477,6.07 17.749,17.749 0 0 1 -14.71,6.056 19.266,19.266 0 0 1 -18.642,-17.523 c -0.616,-5.843 0.543,-11.236 4.293,-15.84 4.362,-5.356 10.145,-7.456 16.925,-6.916 a 17.13,17.13 0 0 1 10.453,4.371 16.343,16.343 0 0 1 4.873,8.061 l -8.086,2.978 -0.325,-0.951 c -2.484,-7.308 -11.019,-7.427 -15.186,-3.979 a 11.4,11.4 0 0 0 -4.015,8.459 12.9,12.9 0 0 0 2.315,8.987 9.86,9.86 0 0 0 9.976,3.908 c 3.72,-0.569 6.139,-2.831 7.477,-6.316 0.06,-0.155 0.122,-0.309 0.211,-0.535 l 7.918,2.833 z m -85.616,-13.913 -8.264,-1.883 a 13.278,13.278 0 0 1 5.745,-9.444 c 3.746,-2.635 7.982,-3.273 12.43,-2.925 a 18.118,18.118 0 0 1 6.757,1.729 c 4.265,2.125 6.46,5.685 7,10.338 a 37.584,37.584 0 0 1 0.154,4.194 q 0.033,11.01 0.031,22.02 c 0,0.247 0,0.5 0,0.81 h -8.364 V 314.6 c -0.8,0.663 -1.794,1.5 -2.805,2.314 -5.217,4.206 -13.932,3.762 -18.527,-0.846 -4.881,-4.9 -4.656,-14.892 4.156,-18.139 a 41.335,41.335 0 0 1 6.823,-1.519 c 2.327,-0.429 4.683,-0.7 7.016,-1.09 2.368,-0.4 3.154,-1.657 2.615,-4.024 a 5.087,5.087 0 0 0 -3.4,-3.832 9.726,9.726 0 0 0 -6.16,-0.234 6.979,6.979 0 0 0 -5.1,5.935 c -0.037,0.155 -0.063,0.316 -0.107,0.565 z m 14.825,7.528 a 5.123,5.123 0 0 0 -0.706,0 c -2.366,0.353 -4.737,0.673 -7.091,1.092 a 20.628,20.628 0 0 0 -4.264,1.051 c -2.022,0.834 -2.868,2.6 -2.686,4.915 a 4.46,4.46 0 0 0 3.417,3.991 12.317,12.317 0 0 0 3.876,0.187 7.6,7.6 0 0 0 6.257,-3.908 c 1.275,-2.286 1.34,-4.786 1.197,-7.328 z m 12.92,-20.64 h 8.753 v 5.646 a 0.924,0.924 0 0 0 0.241,-0.158 c 2.521,-5.05 8.352,-6.556 12.645,-5.84 a 0.671,0.671 0 0 1 0.456,0.441 c 0.028,2.932 0.021,5.865 0.021,8.884 a 37.013,37.013 0 0 0 -5.575,0.047 c -4.038,0.633 -6.469,3.173 -7.192,7.223 a 21.83,21.83 0 0 0 -0.336,3.671 c -0.034,5.689 -0.015,11.378 -0.015,17.066 v 0.974 h -9 v -37.954 z"
         class="cls-1"
         inkscape:connector-curvature="0"
         style="fill-rule:evenodd" />
      <path
         transform="translate(-324.031,-275)"
         d="m 354.155,275.538 c 0.074,0.035 0.145,0.076 0.221,0.1 a 17.7,17.7 0 0 1 11.652,18.6 17.312,17.312 0 0 1 -7.723,12.813 16.138,16.138 0 0 1 -11.34,2.959 10.2,10.2 0 0 1 -7.7,-14.464 10.507,10.507 0 0 1 5.211,-5.115 16.767,16.767 0 0 0 -9.851,6.3 17.8,17.8 0 0 0 4.424,25.547 c 4.277,2.86 9.029,3.171 13.914,2.279 a 24.933,24.933 0 0 0 19.367,-31.84 c -2.73,-9.145 -9.061,-14.708 -18.175,-17.179 z m 0,0 c 9.114,2.471 15.448,8.034 18.177,17.178 a 24.933,24.933 0 0 1 -19.367,31.84 c -4.885,0.892 -9.637,0.581 -13.914,-2.279 a 17.8,17.8 0 0 1 -4.424,-25.547 16.767,16.767 0 0 1 9.851,-6.3 10.507,10.507 0 0 0 -5.211,5.115 10.2,10.2 0 0 0 7.7,14.464 16.138,16.138 0 0 0 11.34,-2.959 17.312,17.312 0 0 0 7.723,-12.813 17.7,17.7 0 0 0 -11.652,-18.6 c -0.078,-0.023 -0.149,-0.064 -0.223,-0.099 z"
         class="cls-2"
         data-name="Shape 1 copy"
         id="Shape_1_copy"
         inkscape:connector-curvature="0"
         style="fill:#adadad;fill-rule:evenodd" />
      <path
         transform="translate(-324.031,-275)"
         d="m 343.316,324.5 c -0.074,-0.034 -0.145,-0.076 -0.221,-0.1 a 17.714,17.714 0 0 1 -11.685,-18.61 17.327,17.327 0 0 1 7.744,-12.824 16.21,16.21 0 0 1 11.372,-2.966 10.2,10.2 0 0 1 7.72,14.475 10.525,10.525 0 0 1 -5.226,5.119 16.812,16.812 0 0 0 9.878,-6.3 17.79,17.79 0 0 0 -4.436,-25.568 c -4.288,-2.862 -9.053,-3.174 -13.952,-2.281 a 24.951,24.951 0 0 0 -19.421,31.865 c 2.736,9.151 9.087,14.719 18.227,17.19 z"
         class="cls-3"
         data-name="Shape 1 copy 2"
         id="Shape_1_copy_2"
         inkscape:connector-curvature="0"
         style="fill:#c1c1c1;fill-rule:evenodd" />
    </g>
    <path
       d="m 126.24956,253.29884 a 1.4631458,1.4631458 0 0 0 -0.45878,-0.52917 2.8387146,2.8387146 0 0 0 -0.71438,-0.35613 9.2792021,9.2792021 0 0 0 -0.9361,-0.26802 q -0.41275,-0.10584 -0.59213,-0.15875 a 1.8385896,1.8385896 0 0 1 -0.35428,-0.15081 0.84111042,0.84111042 0 0 1 -0.27543,-0.23019 0.517525,0.517525 0 0 1 -0.10001,-0.3175 0.61621458,0.61621458 0 0 1 0.29395,-0.50906 1.2964583,1.2964583 0 0 1 0.77364,-0.21167 1.1673417,1.1673417 0 0 1 0.75062,0.19474 1.5893521,1.5893521 0 0 1 0.40032,0.54239 1.4303375,1.4303375 0 0 0 0.23971,0.34978 0.44688125,0.44688125 0 0 0 0.32306,0.10583 0.49821042,0.49821042 0 0 0 0.38999,-0.17806 0.59107917,0.59107917 0 0 0 0.15637,-0.40005 1.1305646,1.1305646 0 0 0 -0.12515,-0.49847 1.5517812,1.5517812 0 0 0 -0.39687,-0.4879 2.0513146,2.0513146 0 0 0 -0.68183,-0.37279 3.01625,3.01625 0 0 0 -0.97367,-0.1405 3.2490833,3.2490833 0 0 0 -1.22608,0.21167 1.7369896,1.7369896 0 0 0 -0.79639,0.6051 1.5345833,1.5345833 0 0 0 -0.27517,0.89958 1.4718771,1.4718771 0 0 0 0.26061,0.89006 1.7824979,1.7824979 0 0 0 0.70697,0.56674 5.7448979,5.7448979 0 0 0 1.10278,0.36248 q 0.49213,0.11298 0.78608,0.21352 a 1.1932708,1.1932708 0 0 1 0.47943,0.29104 0.68156667,0.68156667 0 0 1 0.1852,0.49636 0.77549375,0.77549375 0 0 1 -0.34395,0.64294 1.4512396,1.4512396 0 0 1 -0.8943,0.2577 1.4044083,1.4044083 0 0 1 -0.64637,-0.12779 1.0207625,1.0207625 0 0 1 -0.38153,-0.32465 2.4960792,2.4960792 0 0 1 -0.25242,-0.49001 0.98821875,0.98821875 0 0 0 -0.23124,-0.37279 0.47042917,0.47042917 0 0 0 -0.33152,-0.12568 0.53101875,0.53101875 0 0 0 -0.39688,0.16139 0.53631042,0.53631042 0 0 0 -0.15637,0.38735 1.501775,1.501775 0 0 0 0.26062,0.80222 1.9925771,1.9925771 0 0 0 0.67759,0.65961 2.924175,2.924175 0 0 0 1.49278,0.34396 3.1173208,3.1173208 0 0 0 1.30519,-0.25136 1.8991792,1.8991792 0 0 0 0.83609,-0.69532 1.8086917,1.8086917 0 0 0 0.28575,-1.00092 1.7041812,1.7041812 0 0 0 -0.1659,-0.78687 z m 4.24498,2.56354 a 0.5254625,0.5254625 0 0 0 0.76729,0.006 0.70934792,0.70934792 0 0 0 0.1479,-0.49 V 252.065 a 0.74083333,0.74083333 0 0 0 -0.15425,-0.51303 0.5254625,0.5254625 0 0 0 -0.40852,-0.1696 0.53604583,0.53604583 0 0 0 -0.41301,0.17172 0.72998542,0.72998542 0 0 0 -0.15875,0.51091 v 1.39065 a 3.61315,3.61315 0 0 1 -0.0961,1.06389 0.99959583,0.99959583 0 0 1 -0.37041,0.4482 0.95038333,0.95038333 0 0 1 -0.54187,0.17172 0.68130208,0.68130208 0 0 1 -0.4691,-0.15293 0.80115833,0.80115833 0 0 1 -0.23998,-0.42333 2.8371271,2.8371271 0 0 1 -0.0667,-0.66808 v -1.83039 a 0.72998542,0.72998542 0 0 0 -0.15875,-0.51091 0.54001458,0.54001458 0 0 0 -0.41698,-0.17171 0.52466875,0.52466875 0 0 0 -0.40852,0.1696 0.74083333,0.74083333 0 0 0 -0.15425,0.51302 v 2.26616 a 2.1058187,2.1058187 0 0 0 0.21167,1.04722 1.2530667,1.2530667 0 0 0 0.50667,0.47334 1.5713604,1.5713604 0 0 0 0.74084,0.17172 1.9899312,1.9899312 0 0 0 0.60854,-0.086 1.5782396,1.5782396 0 0 0 0.49186,-0.26168 2.5442333,2.5442333 0 0 0 0.42968,-0.43577 v 0.14658 a 0.68606458,0.68606458 0 0 0 0.15267,0.47572 z m 5.33955,-3.38428 c 0.0529,-0.0601 0.0945,-0.11113 0.12515,-0.15293 a 0.69770625,0.69770625 0 0 0 0.0833,-0.1614 0.53101875,0.53101875 0 0 0 0.0376,-0.1905 0.39899167,0.39899167 0 0 0 -0.19394,-0.38338 1.1736917,1.1736917 0 0 0 -0.55562,-0.10583 h -2.61461 a 0.57202917,0.57202917 0 0 0 -0.3855,0.11721 0.39422917,0.39422917 0 0 0 -0.13573,0.31406 0.30559375,0.30559375 0 0 0 0.17938,0.33099 1.6975667,1.6975667 0 0 0 0.52917,0.0627 h 1.69333 q -0.10424,0.14684 -0.27728,0.3519 -0.17304,0.20505 -0.43577,0.50059 -0.26273,0.29527 -0.56912,0.635 -0.30638,0.33972 -0.68183,0.75829 -0.35428,0.39688 -0.46699,0.54663 a 0.50032708,0.50032708 0 0 0 0.0479,0.68474 0.714375,0.714375 0 0 0 0.48578,0.14235 h 3.08583 a 0.59822292,0.59822292 0 0 0 0.41064,-0.12144 0.4016375,0.4016375 0 0 0 0.13573,-0.31406 0.42836042,0.42836042 0 0 0 -0.13785,-0.32888 0.58023125,0.58023125 0 0 0 -0.40852,-0.12779 h -2.23096 l 2.08491,-2.3413 q 0.11563,-0.127 0.195,-0.21696 z m 4.91623,1.38218 a 0.57070625,0.57070625 0 0 0 0.24606,-0.55933 1.9290771,1.9290771 0 0 0 -0.23812,-0.91307 1.8557875,1.8557875 0 0 0 -0.71438,-0.73078 2.2055667,2.2055667 0 0 0 -1.14459,-0.28284 2.54,2.54 0 0 0 -0.93398,0.16536 1.8975917,1.8975917 0 0 0 -0.70908,0.47625 2.0743333,2.0743333 0 0 0 -0.43762,0.74348 2.8508854,2.8508854 0 0 0 -0.15028,0.94033 2.346325,2.346325 0 0 0 0.60854,1.70498 2.2645687,2.2645687 0 0 0 1.7055,0.62812 2.6265187,2.6265187 0 0 0 0.84852,-0.12568 2.073275,2.073275 0 0 0 0.61304,-0.31618 1.4324542,1.4324542 0 0 0 0.36486,-0.39687 0.74506667,0.74506667 0 0 0 0.12092,-0.36222 0.34395833,0.34395833 0 0 0 -0.10848,-0.27225 0.41010417,0.41010417 0 0 0 -0.28337,-0.0963 0.37279792,0.37279792 0 0 0 -0.2503,0.0754 q -0.21167,0.20082 -0.34607,0.3175 a 2.5259771,2.5259771 0 0 1 -0.29105,0.21987 1.2109979,1.2109979 0 0 1 -0.32728,0.15082 1.3631333,1.3631333 0 0 1 -0.37333,0.0481 1.0646833,1.0646833 0 0 1 -0.55563,-0.15081 1.0779125,1.0779125 0 0 1 -0.40454,-0.44821 1.5274396,1.5274396 0 0 1 -0.15637,-0.68791 h 2.22673 a 1.5269104,1.5269104 0 0 0 0.6903,-0.127 z m -2.58736,-1.39488 a 0.90910833,0.90910833 0 0 1 0.6985,-0.29528 0.9413875,0.9413875 0 0 1 0.7194,0.29105 1.3954125,1.3954125 0 0 1 0.31485,0.87762 h -2.06375 a 1.4726708,1.4726708 0 0 1 0.331,-0.87339 z m 3.9489,3.38667 a 0.51355625,0.51355625 0 0 0 0.40667,0.17991 0.53922083,0.53922083 0 0 0 0.41486,-0.17383 0.74586042,0.74586042 0 0 0 0.16061,-0.52149 v -4.95935 a 0.75194583,0.75194583 0 0 0 -0.15875,-0.5215 0.53789792,0.53789792 0 0 0 -0.41699,-0.17383 0.5159375,0.5159375 0 0 0 -0.41089,0.17595 0.7747,0.7747 0 0 0 -0.15214,0.51938 v 4.95935 a 0.76305833,0.76305833 0 0 0 0.15663,0.51541 z m 2.31431,0 a 0.51355625,0.51355625 0 0 0 0.40667,0.17991 0.53922083,0.53922083 0 0 0 0.41487,-0.17383 0.74586042,0.74586042 0 0 0 0.1606,-0.52149 v -4.95935 a 0.75194583,0.75194583 0 0 0 -0.15875,-0.5215 0.53789792,0.53789792 0 0 0 -0.41699,-0.17383 0.5159375,0.5159375 0 0 0 -0.41089,0.17595 0.7747,0.7747 0 0 0 -0.15214,0.51938 v 4.95935 a 0.76305833,0.76305833 0 0 0 0.15663,0.51541 z m 6.02774,-1.99179 a 0.57070625,0.57070625 0 0 0 0.24606,-0.55933 1.9293417,1.9293417 0 0 0 -0.23812,-0.91307 1.8557875,1.8557875 0 0 0 -0.71438,-0.73078 2.2055667,2.2055667 0 0 0 -1.14458,-0.28284 2.54,2.54 0 0 0 -0.93398,0.16536 1.89865,1.89865 0 0 0 -0.70882,0.47625 2.0748625,2.0748625 0 0 0 -0.43789,0.74348 2.8575,2.8575 0 0 0 -0.15028,0.94033 2.346325,2.346325 0 0 0 0.60854,1.70498 2.2645687,2.2645687 0 0 0 1.70551,0.62812 2.6270479,2.6270479 0 0 0 0.84878,-0.12568 2.0716875,2.0716875 0 0 0 0.61277,-0.31618 1.42875,1.42875 0 0 0 0.36486,-0.39687 0.74506667,0.74506667 0 0 0 0.12092,-0.36222 0.34395833,0.34395833 0 0 0 -0.10822,-0.27225 0.41142708,0.41142708 0 0 0 -0.28363,-0.0963 0.37279792,0.37279792 0 0 0 -0.25029,0.0754 q -0.21167,0.20082 -0.34608,0.3175 a 2.5259771,2.5259771 0 0 1 -0.29104,0.21987 1.2075583,1.2075583 0 0 1 -0.32729,0.15082 1.3631333,1.3631333 0 0 1 -0.37333,0.0481 1.0646833,1.0646833 0 0 1 -0.55562,-0.15081 1.0755312,1.0755312 0 0 1 -0.40429,-0.44821 1.524,1.524 0 0 1 -0.15663,-0.68791 h 2.22541 a 1.5269104,1.5269104 0 0 0 0.69162,-0.127 z m -2.58762,-1.39488 a 0.90990208,0.90990208 0 0 1 0.6985,-0.29528 0.94085833,0.94085833 0 0 1 0.7194,0.29105 1.393825,1.393825 0 0 1 0.31485,0.87762 h -2.06375 a 1.4742583,1.4742583 0 0 1 0.331,-0.87339 z m 4.0595,-2.49846 a 0.80062917,0.80062917 0 0 0 -0.17939,0.58208 v 4.50268 a 1.8470562,1.8470562 0 0 0 0.0529,0.48366 0.47810208,0.47810208 0 0 0 0.22331,0.28919 1.0067396,1.0067396 0 0 0 0.50853,0.10239 h 1.61396 a 4.7625,4.7625 0 0 0 0.75671,-0.0529 2.4243771,2.4243771 0 0 0 0.62759,-0.18865 2.1201062,2.1201062 0 0 0 0.5379,-0.35587 2.562225,2.562225 0 0 0 0.51302,-0.65563 2.9916437,2.9916437 0 0 0 0.29607,-0.82312 4.930775,4.930775 0 0 0 0.0958,-1.00939 q 0,-1.6756 -0.95488,-2.49634 a 1.984375,1.984375 0 0 0 -0.8173,-0.44 4.3391667,4.3391667 0 0 0 -1.08003,-0.11721 h -1.61395 a 0.79375,0.79375 0 0 0 -0.58024,0.17912 z m 1.87642,0.80407 a 3.3128479,3.3128479 0 0 1 0.96758,0.12356 1.2170833,1.2170833 0 0 1 0.67337,0.576 2.6884312,2.6884312 0 0 1 0.27305,1.36128 q 0,1.29011 -0.62124,1.81795 a 0.9858375,0.9858375 0 0 1 -0.32518,0.18838 1.5028333,1.5028333 0 0 1 -0.36274,0.0839 q -0.17542,0.0167 -0.48392,0.0167 h -0.93821 v -4.16771 z m 4.47966,5.07047 a 0.56806042,0.56806042 0 0 0 0.43974,0.1905 0.58525833,0.58525833 0 0 0 0.45244,-0.18838 0.81835625,0.81835625 0 0 0 0.17304,-0.56965 v -4.8379 a 0.81015417,0.81015417 0 0 0 -0.17304,-0.56754 0.58843333,0.58843333 0 0 0 -0.45244,-0.1852 0.56911875,0.56911875 0 0 0 -0.44185,0.18864 0.81729792,0.81729792 0 0 0 -0.17092,0.56542 v 4.83658 a 0.82020833,0.82020833 0 0 0 0.17303,0.56753 z m 3.98436,0.004 a 0.62468125,0.62468125 0 0 0 0.89218,-0.002 0.81094792,0.81094792 0 0 0 0.17515,-0.56965 v -1.94786 l 1.53035,-2.35823 a 4.2470917,4.2470917 0 0 0 0.2712,-0.45218 0.746125,0.746125 0 0 0 0.0794,-0.32676 0.4810125,0.4810125 0 0 0 -0.15637,-0.35401 0.53551667,0.53551667 0 0 0 -0.38973,-0.15293 0.54504167,0.54504167 0 0 0 -0.25453,0.0545 0.6223,0.6223 0 0 0 -0.1897,0.15716 1.8084271,1.8084271 0 0 0 -0.15637,0.21987 c -0.0474,0.0781 -0.10584,0.17462 -0.17516,0.28892 l -1.1549,1.86399 -1.14274,-1.86399 a 4.3463104,4.3463104 0 0 0 -0.39396,-0.57599 0.49503542,0.49503542 0 0 0 -0.38577,-0.14447 0.57176458,0.57176458 0 0 0 -0.40666,0.15505 0.48921458,0.48921458 0 0 0 -0.16457,0.36856 0.74982917,0.74982917 0 0 0 0.0812,0.30586 4.8651583,4.8651583 0 0 0 0.27728,0.49001 l 1.49305,2.32463 v 1.94786 a 0.82338333,0.82338333 0 0 0 0.17171,0.5715 z"
       class="cls-1"
       id="SuzelleDIY"
       inkscape:connector-curvature="0"
       style="fill-rule:evenodd;stroke-width:0.26458332" />
    <path
       id="path5595"
       d="m 116.30187,276.49434 c 0.2532,0.0265 0.50747,0.0458 0.75935,0.0826 a 7.9287687,7.9287687 0 0 1 6.81461,8.44576 7.8665917,7.8665917 0 0 1 -15.59507,0.84879 c -0.0564,-0.31094 -0.0775,-0.62817 -0.11589,-0.9425 a 0.5603875,0.5603875 0 0 0 -0.022,-0.0794 v -0.82736 a 1.0805583,1.0805583 0 0 0 0.0265,-0.13229 7.6311125,7.6311125 0 0 1 1.19909,-3.68749 7.7522917,7.7522917 0 0 1 5.61367,-3.6248 c 0.25638,-0.0378 0.51541,-0.0558 0.77311,-0.0828 h 0.54742 z m 2.83289,7.41204 a 0.11985625,0.11985625 0 0 0 -0.0114,0.0323 c 0.0191,0.0362 0.0378,0.0725 0.0587,0.10795 a 2.1695833,2.1695833 0 0 1 0.3175,1.11125 2.3566437,2.3566437 0 0 1 -1.27238,2.14312 2.7752146,2.7752146 0 0 1 -1.42875,0.35163 q -2.27145,0 -4.54316,0 h -0.17013 v 1.01547 h 0.12145 q 2.50428,0 5.0083,-0.002 a 2.5701625,2.5701625 0 0 0 0.52916,-0.0497 2.7559,2.7559 0 0 0 2.16959,-3.29274 2.6500667,2.6500667 0 0 0 -0.77894,-1.41658 z m -0.69082,0.24447 c 0.0794,0.73316 -0.22411,1.24222 -0.89959,1.48167 a 2.2402271,2.2402271 0 0 1 -0.7231,0.12224 c -1.51951,0.0108 -3.03901,0.006 -4.55851,0.006 h -0.18071 c -0.004,0.0577 -0.009,0.0979 -0.009,0.13812 0,0.32173 0.004,0.64346 -0.003,0.9652 a 0.11297708,0.11297708 0 0 0 0.14049,0.1389 c 1.55602,-0.003 3.11203,0.006 4.66778,-0.01 a 2.3370646,2.3370646 0 0 0 0.81042,-0.16166 1.7248187,1.7248187 0 0 0 1.10384,-2.00396 1.4909271,1.4909271 0 0 0 -0.34898,-0.67627 z m -4.84611,1.14856 0.0243,-0.0265 c -0.0437,-0.0392 -0.0881,-0.0775 -0.13229,-0.11774 -0.0442,-0.0402 -0.0934,-0.0878 -0.13679,-0.13494 a 2.4534812,2.4534812 0 0 1 -0.635,-1.84573 2.3547917,2.3547917 0 0 1 0.88265,-1.80499 2.3926271,2.3926271 0 0 1 1.57242,-0.53499 q 2.0185,0.002 4.03674,0 h 0.1778 v -0.63129 h -0.14393 q -2.21694,0 -4.43362,0.002 a 2.8929542,2.8929542 0 0 0 -0.52917,0.0437 2.6934583,2.6934583 0 0 0 -1.53802,4.38759 2.5135417,2.5135417 0 0 0 0.85487,0.66304 z m 0.0328,-1.03928 a 1.4488583,1.4488583 0 0 1 0.78554,-1.1303 2.4870833,2.4870833 0 0 1 1.26101,-0.3011 c 1.17713,0.003 2.35479,0 3.53113,0 h 0.18944 c 0,-0.18336 -0.006,-0.34793 0.002,-0.5117 a 0.11165417,0.11165417 0 0 0 -0.13706,-0.14156 c -1.31392,0.003 -2.62784,-0.003 -3.94229,0.004 a 1.7867312,1.7867312 0 0 0 -1.45521,0.66887 1.37795,1.37795 0 0 0 -0.23468,1.41155 z m -0.47467,-1.00833 a 4.65455,4.65455 0 0 1 0.29104,-0.54769 2.1121687,2.1121687 0 0 1 1.75684,-0.93398 c 1.33535,-0.0212 2.67229,-0.007 4.00711,-0.007 h 0.17674 v -0.4953 c -0.0421,-0.002 -0.0736,-0.006 -0.10583,-0.006 -1.40891,0 -2.81755,-0.003 -4.22619,0.004 a 1.9404542,1.9404542 0 0 0 -1.89971,1.98675 z m 53.19528,-0.27517 c -0.39212,-0.003 -0.78423,-0.007 -1.17634,-0.008 -0.47863,0 -0.95726,0 -1.44648,0 v 1.04775 h 1.9521 v 0.96785 h -1.95792 v 1.88833 h -1.05622 v -4.87177 c 0.0497,-0.002 0.10187,-0.007 0.15399,-0.007 h 3.36762 c 0.0529,0 0.10848,-0.007 0.16272,-0.0103 v 0.99324 z m -24.43798,3.90525 v -4.88844 a 2.9972,2.9972 0 0 0 0.46302,-0.004 0.77999167,0.77999167 0 0 1 0.82735,0.40614 c 0.59743,0.83952 1.23481,1.65047 1.85632,2.47253 0.0249,0.0328 0.0511,0.0646 0.10028,0.12673 0.004,-0.0754 0.009,-0.12118 0.009,-0.16668 0,-0.89139 0.002,-1.78277 -0.002,-2.67415 0,-0.1225 0.0265,-0.16854 0.15742,-0.16378 0.29105,0.0101 0.58209,0.003 0.88557,0.003 0.004,0.0571 0.009,0.10134 0.009,0.14526 0,1.53008 0,3.0599 0.003,4.58999 0,0.12065 -0.0294,0.16034 -0.15187,0.15451 -0.20929,-0.01 -0.4199,-0.009 -0.62918,0 a 0.23098125,0.23098125 0 0 1 -0.21167,-0.11694 q -1.06707,-1.41579 -2.1381,-2.8284 c -0.0325,-0.0429 -0.0659,-0.0852 -0.12462,-0.16086 -0.004,0.0889 -0.008,0.14049 -0.008,0.19182 0,0.78581 0,1.57136 0,2.35691 0,0.17806 -0.0101,0.35586 -0.0156,0.53366 -0.18044,0.007 -0.36089,0.0164 -0.54133,0.0204 -0.15955,0.003 -0.31803,8e-4 -0.48816,8e-4 z m 10.11502,-2.44078 a 2.5743958,2.5743958 0 1 1 2.56778,2.52413 2.5135417,2.5135417 0 0 1 -2.56778,-2.52545 z m 4.0394,-0.002 a 1.4676437,1.4676437 0 1 0 -2.93212,-0.13229 1.5041562,1.5041562 0 0 0 1.49993,1.6764 1.4647333,1.4647333 0 0 0 1.43219,-1.54543 z m -7.91978,-2.43905 v 0.17384 c 0,0.54213 0.002,1.08479 -0.002,1.62665 a 0.10847917,0.10847917 0 0 0 0.13229,0.13521 q 0.86202,-0.006 1.72429,0 c 0.10451,0 0.13071,-0.0355 0.12991,-0.13574 -0.004,-0.55562 0,-1.11125 -0.004,-1.66687 0,-0.10583 0.0265,-0.14393 0.13812,-0.14129 0.30003,0.007 0.60034,0.003 0.91096,0.003 v 4.88659 c -0.32835,0 -0.65114,0.003 -0.97367,-0.006 a 0.16853958,0.16853958 0 0 1 -0.0704,-0.12674 c -0.005,-0.55139 -0.003,-1.10278 -0.003,-1.65417 v -0.17331 c -0.0601,-0.003 -0.10451,-0.008 -0.14896,-0.008 -0.56118,0 -1.12236,0.003 -1.68328,-0.003 -0.12329,0 -0.15319,0.0384 -0.15187,0.15875 0.006,0.54213 0.002,1.08479 0.002,1.62639 v 0.17648 c -0.0487,0.004 -0.0878,0.0103 -0.127,0.0106 -0.26458,0 -0.52916,-0.005 -0.79375,0.003 -0.10954,0.003 -0.13943,-0.0328 -0.1389,-0.14049 0.004,-0.80857 0.002,-1.6174 0.002,-2.42623 0,-0.72602 0.002,-1.45204 -0.002,-2.17805 0,-0.11404 0.0315,-0.15081 0.14605,-0.14737 0.25532,0.008 0.51091,0.002 0.76729,0.003 0.041,-0.002 0.0855,0.002 0.14552,0.004 z m -11.61177,0.9398 v 0.99907 h 1.93146 v 0.9525 h -1.9296 v 1.03346 h 2.61408 v 0.94404 h -3.67268 v -4.86569 h 3.64463 v 0.93662 h -2.58921 z m -6.54208,-0.39158 -0.54108,0.78952 c -0.14658,-0.0841 -0.28072,-0.16986 -0.42333,-0.24104 a 1.6184562,1.6184562 0 0 0 -1.05304,-0.20822 0.70934792,0.70934792 0 0 0 -0.2167,0.0794 0.390525,0.390525 0 0 0 -0.0148,0.68792 4.7749354,4.7749354 0 0 0 0.70115,0.26193 c 0.3011,0.10425 0.61198,0.18336 0.90435,0.30798 a 1.2094104,1.2094104 0 0 1 0.79375,1.21708 1.349375,1.349375 0 0 1 -0.81439,1.30863 2.6442458,2.6442458 0 0 1 -1.95051,0.037 2.8604104,2.8604104 0 0 1 -1.06733,-0.6178 l 0.61886,-0.74665 c 0.12092,0.0852 0.2294,0.16854 0.34396,0.2413 a 1.8872729,1.8872729 0 0 0 1.35202,0.32067 0.77337708,0.77337708 0 0 0 0.24368,-0.0844 0.39925625,0.39925625 0 0 0 0.0153,-0.71437 4.3537187,4.3537187 0 0 0 -0.67469,-0.25586 c -0.29342,-0.0987 -0.59637,-0.17145 -0.8837,-0.28469 a 1.1922125,1.1922125 0 0 1 -0.82259,-1.15173 1.3758333,1.3758333 0 0 1 0.68791,-1.31604 2.0507854,2.0507854 0 0 1 1.24355,-0.24288 2.7424062,2.7424062 0 0 1 1.45838,0.53234 c 0.0328,0.0225 0.0624,0.05 0.0979,0.0799 z m 29.16316,1.47082 h 1.95528 v 0.95964 h -1.9566 v 1.88992 h -1.05833 v -4.86621 h 3.67109 v 0.95937 h -2.61144 v 1.05834 z m -27.0457,-1.04484 h -1.47241 v -0.96785 h 3.99521 v 0.96759 h -1.46447 v 3.89837 h -1.05833 z m 7.87849,3.88938 v -4.87019 h 0.72708 c 0.32491,0 0.32491,0 0.32491,0.32041 q 0,2.17831 0,4.35636 c 0,0.23813 0.0265,0.20929 -0.21511,0.20982 -0.26458,0 -0.52917,0 -0.79375,-0.003 a 0.24394583,0.24394583 0 0 1 -0.0431,-0.0143 z"
       class="cls-1"
       inkscape:connector-curvature="0"
       style="fill-rule:evenodd;stroke-width:0.26458332" />
    <g
       id="g5621"
       transform="matrix(0.26458333,0,0,0.26458333,113.31277,305.30801)">
      <path
         id="path5609"
         transform="translate(-346,-275)"
         d="m 371.42,304.321 15.447,20.361 h -15.9 l -12.058,-19.108 h -0.13 v 19.108 H 346 V 275 h 19.1 c 9.711,0 17.076,4.678 17.076,15.286 0,6.852 -3.781,12.783 -10.754,14.034 m -12.644,-19.437 v 12.387 h 1.239 c 4.17,0 8.863,-0.791 8.863,-6.193 0,-5.402 -4.693,-6.194 -8.863,-6.194 z m 31.544,39.8 V 275 h 18.119 a 24.841,24.841 0 1 1 0,49.681 H 390.32 Z M 403.1,285.938 v 27.805 h 2.867 c 7.627,0 14.143,-4.216 14.143,-13.9 0,-8.894 -5.8,-13.9 -14.012,-13.9 h -3 z"
         class="cls-1"
         inkscape:connector-curvature="0"
         style="fill-rule:evenodd" />
      <path
         transform="translate(-346,-275)"
         d="m 446.371,310.58 a 7.71,7.71 0 1 0 7.629,7.711 7.637,7.637 0 0 0 -7.626,-7.711"
         class="cls-2"
         data-name="Shape 30 copy"
         id="Shape_30_copy"
         inkscape:connector-curvature="0"
         style="fill:#cacaca;fill-rule:evenodd" />
    </g>
    <g
       transform="translate(54.879977,53.738671)"
       id="layer1-7"
       inkscape:label="Layer 1">
      <path
         style="fill-rule:evenodd;stroke-width:0.26458332"
         inkscape:connector-curvature="0"
         class="cls-1"
         d="m 42.002093,277.98139 a 1.3917083,1.3917083 0 0 0 -1.34937,-1.20941 1.4478,1.4478 0 0 0 -1.38774,1.20941 h 2.73632 z m -2.7559,0.67415 a 1.489075,1.489075 0 0 0 2.81464,0.73369 0.15636875,0.15636875 0 0 1 0.21484,-0.0595 l 0.39105,0.21828 a 0.18520833,0.18520833 0 0 1 0.0587,0.23813 2.2981708,2.2981708 0 0 1 -2.03279,1.15014 c -1.36816,0 -2.24896,-1.05092 -2.24896,-2.37966 0,-1.36816 0.78185,-2.49846 2.22832,-2.49846 1.40732,0 2.1889,1.15014 2.16959,2.45904 a 0.16933333,0.16933333 0 0 1 -0.15637,0.15875 z m 5.27738,-2.00263 a 1.1056937,1.1056937 0 0 1 1.03611,-0.635 1.3157729,1.3157729 0 0 1 0.54716,0.13891 0.16774583,0.16774583 0 0 1 0.0794,0.21802 l -0.19553,0.39687 a 0.16218958,0.16218958 0 0 1 -0.23442,0.0593 0.60113333,0.60113333 0 0 0 -0.33232,-0.099 c -0.85989,0 -0.89958,0.9914 -0.89958,1.72509 v 2.18096 a 0.15531042,0.15531042 0 0 1 -0.15637,0.15875 h -0.44979 a 0.15531042,0.15531042 0 0 1 -0.15637,-0.15875 v -4.30239 a 0.15531042,0.15531042 0 0 1 0.15637,-0.15875 h 0.44979 a 0.155575,0.155575 0 0 1 0.15637,0.15875 v 0.3175 z m 2.52148,1.8243 c 0,0.9525 0.66463,1.72509 1.62216,1.72509 0.95753,0 1.62216,-0.77338 1.62216,-1.72509 a 1.6253354,1.6253354 0 1 0 -3.24432,0 m -0.78211,0.0199 a 2.4045333,2.4045333 0 1 1 2.40427,2.43893 2.4124708,2.4124708 0 0 1 -2.40427,-2.43893 m -9.44033,0.0593 v 0.47625 a 1.1170708,1.1170708 0 0 1 -0.23469,0.81306 1.3610167,1.3610167 0 0 1 -1.03584,0.3175 1.2260792,1.2260792 0 0 1 -0.80142,-0.19817 0.66145833,0.66145833 0 0 1 -0.254,-0.59505 0.72151875,0.72151875 0 0 1 0.254,-0.61463 1.1924771,1.1924771 0 0 1 0.78184,-0.21801 z m 0.29316,-2.22065 a 2.2359937,2.2359937 0 0 0 -1.46606,-0.41646 c -0.66437,0 -1.13348,0.1188 -1.54411,0.51541 a 1.0419292,1.0419292 0 0 0 -0.11721,0.13891 0.16562917,0.16562917 0 0 0 0.0196,0.23812 l 0.29316,0.27782 a 0.15875,0.15875 0 0 0 0.23468,-0.0199 0.01905,0.01905 0 0 1 0.0193,-0.0198 c 0.25427,-0.29739 0.52917,-0.39688 1.07527,-0.39688 a 1.3118042,1.3118042 0 0 1 0.91863,0.25771 0.7000875,0.7000875 0 0 1 0.27358,0.635 v 0.41645 h -1.38774 a 1.825625,1.825625 0 0 0 -1.25095,0.39688 1.3446125,1.3446125 0 0 0 -0.44979,1.05092 1.4552083,1.4552083 0 0 0 0.37042,1.01124 c 0.31273,0.3175 0.72337,0.45614 1.38774,0.45614 a 1.7086792,1.7086792 0 0 0 1.32926,-0.45614 v 0.23812 a 0.15531042,0.15531042 0 0 0 0.15637,0.15875 h 0.46911 a 0.155575,0.155575 0 0 0 0.15637,-0.15875 v -3.17367 a 1.2792604,1.2792604 0 0 0 -0.48763,-1.14988 z m 14.81666,-0.11915 v 1.84415 h 0.23442 v -0.81306 h 1.01547 v -0.23813 h -1.01653 v -0.61489 h 1.13374 v -0.23813 h -1.36816 v 0.0595 z m 2.81464,0.97155 a 0.86942083,0.86942083 0 0 0 -0.46937,-0.19817 1.0284354,1.0284354 0 0 1 -0.39079,-0.1389 0.231775,0.231775 0 0 1 -0.0794,-0.19818 0.31379583,0.31379583 0 0 1 0.37042,-0.27781 0.70564375,0.70564375 0 0 1 0.48868,0.19844 l 0.0392,0.0397 0.11721,-0.15875 0.0389,-0.04 -0.0389,-0.0397 a 0.92895208,0.92895208 0 0 0 -0.64505,-0.23813 0.69082708,0.69082708 0 0 0 -0.44979,0.15875 0.49106667,0.49106667 0 0 0 -0.17595,0.37677 0.46804792,0.46804792 0 0 0 0.15637,0.35692 1.0197042,1.0197042 0 0 0 0.48868,0.19817 0.75829583,0.75829583 0 0 1 0.37042,0.13891 0.23071667,0.23071667 0 0 1 0.0794,0.19817 0.33443333,0.33443333 0 0 1 -0.39079,0.29766 0.80750833,0.80750833 0 0 1 -0.60616,-0.25797 l -0.0389,-0.0397 -0.11721,0.13891 -0.0392,0.0397 0.0392,0.0397 a 1.0541,1.0541 0 0 0 0.76226,0.2974 0.65378542,0.65378542 0 0 0 0.4498,-0.15875 0.51990625,0.51990625 0 0 0 0.19526,-0.39688 0.4572,0.4572 0 0 0 -0.15611,-0.33708 m -25.09678,0.11906 a 2.9260271,2.9260271 0 0 0 -1.4224,0.508 1.7705917,1.7705917 0 0 0 -0.12991,2.59292 1.9166417,1.9166417 0 0 0 1.31789,0.52731 c 0.49424,0 1.11839,-0.22939 1.37345,-0.68791 a 0.714375,0.714375 0 0 0 0.0447,-0.61992 0.49662292,0.49662292 0 0 0 -0.67627,-0.20585 c -0.12012,0.0616 -0.56859,0.47149 -0.9578,0.37254 a 0.87709375,0.87709375 0 0 1 -0.60404,-1.21179 2.4100896,2.4100896 0 0 1 0.57441,-0.79032 2.6333979,2.6333979 0 0 1 0.41063,-0.31485 0.35956875,0.35956875 0 0 0 0.15875,-0.12171 c 0.0196,-0.0643 -0.0397,-0.0553 -0.0886,-0.0489 m 2.05237,-0.91228 c -0.13732,-1.11733 -1.31603,-1.88357 -2.36008,-1.88357 a 2.797175,2.797175 0 0 0 -1.58485,0.48049 3.3480375,3.3480375 0 0 0 -0.59188,0.51223 4.2822812,4.2822812 0 0 0 -0.4183,0.54769 c -0.0265,0.0468 0.013,0.10848 0.0368,0.0386 0.005,-0.0156 0.16272,-0.16643 0.22305,-0.22569 a 2.8897792,2.8897792 0 0 1 0.6178,-0.46197 2.5056042,2.5056042 0 0 1 1.65259,-0.33999 1.9629437,1.9629437 0 0 1 1.38006,0.95092 0.94350417,0.94350417 0 0 1 0.0577,0.7911 c -0.0915,0.24924 -0.254,0.46196 -0.33073,0.71914 a 0.55165625,0.55165625 0 0 0 0.0886,0.60193 0.53604583,0.53604583 0 0 0 0.71914,-0.0114 c 0.44158,-0.38894 0.57917,-1.15914 0.51011,-1.71979 -0.0291,-0.23681 0.0296,0.23944 0,0 m -4.24048,4.32276 c -0.72707,0 -1.08479,-0.73687 -1.16416,-1.37583 a 2.460625,2.460625 0 0 1 0.4945,-1.77509 2.1751396,2.1751396 0 0 1 2.10873,-0.86334 2.1976292,2.1976292 0 0 1 0.6395,0.22595 2.5841854,2.5841854 0 0 1 0.24315,0.14738 1.2766146,1.2766146 0 0 0 0.18362,0.13679 c 0.15875,0.0651 -0.003,-0.15875 -0.0339,-0.20479 a 2.619375,2.619375 0 0 0 -1.34938,-1.04854 3.0382104,3.0382104 0 0 0 -2.33918,0.28098 c -1.49992,0.82153 -2.27277,2.91968 -1.41076,4.4757 a 2.5283583,2.5283583 0 0 0 1.71133,1.27185 1.4866937,1.4866937 0 0 0 1.22608,-0.20373 0.64743542,0.64743542 0 0 0 0.14631,-0.87524 0.57758542,0.57758542 0 0 0 -0.4564,-0.1913 m 15.90489,1.71768 h -0.33602 v 2.15767 h 0.33602 v -0.23812 a 0.517525,0.517525 0 0 0 0.47625,0.26458 c 0.37492,0 0.64426,-0.28733 0.64426,-0.76094 v -0.0222 c 0,-0.47625 -0.28045,-0.74957 -0.64426,-0.74957 a 0.5603875,0.5603875 0 0 0 -0.47625,0.2675 v -0.91837 m -0.7358,0 h -0.33602 v 0.90725 a 0.4953,0.4953 0 0 0 -0.46408,-0.25638 c -0.37756,0 -0.65246,0.29872 -0.65246,0.76915 v 0.0228 c 0,0.47916 0.2749,0.74083 0.6387,0.74083 a 0.555625,0.555625 0 0 0 0.47784,-0.27596 v 0.2495 h 0.33602 v -2.15556 m -8.40714,0 h -0.33603 v 2.15556 h 0.33602 v -0.23812 a 0.51699583,0.51699583 0 0 0 0.47492,0.26458 c 0.37492,0 0.64426,-0.28733 0.64426,-0.76094 v -0.0222 c 0,-0.47625 -0.28045,-0.74957 -0.64426,-0.74957 a 0.55985833,0.55985833 0 0 0 -0.47492,0.2675 v -0.91837 m 4.31271,0.14076 h -0.66649 v 2.01638 h 0.37042 v -0.81438 h 0.236 l 0.51938,0.81438 h 0.40005 l -0.55827,-0.87074 a 0.52916667,0.52916667 0 0 0 0.44159,-0.54107 v -0.0111 c 0,-0.41143 -0.30559,-0.59188 -0.74083,-0.59188 m 10.0375,0.21723 h -0.33603 v 0.32385 h -0.19446 v 0.25638 h 0.19446 v 0.80592 a 0.39343542,0.39343542 0 0 0 0.43868,0.43656 0.64055625,0.64055625 0 0 0 0.22781,-0.0365 v -0.27173 a 0.41010417,0.41010417 0 0 1 -0.16378,0.0283 0.15875,0.15875 0 0 1 -0.16668,-0.18891 v -0.77497 h 0.31935 v -0.25638 h -0.31935 v -0.32411 m -1.43881,0.29289 a 0.72337083,0.72337083 0 0 0 -0.74692,0.76068 v 0.0225 a 0.74586042,0.74586042 0 1 0 1.49146,-0.008 v -0.0228 a 0.71887292,0.71887292 0 0 0 -0.74454,-0.75221 m -1.69704,0 a 0.72337083,0.72337083 0 0 0 -0.74691,0.76068 v 0.0225 a 0.74586042,0.74586042 0 1 0 1.49145,-0.008 v -0.0228 a 0.71887292,0.71887292 0 0 0 -0.74454,-0.75221 m -5.15196,0 a 0.71146458,0.71146458 0 0 0 -0.72205,0.76068 v 0.0225 a 0.70114583,0.70114583 0 0 0 0.73607,0.74956 c 0.37227,0 0.61939,-0.1688 0.66649,-0.47889 h -0.32624 a 0.28495625,0.28495625 0 0 1 -0.33337,0.22542 0.38867292,0.38867292 0 0 1 -0.40005,-0.43682 h 1.06389 v -0.0987 a 0.66145833,0.66145833 0 0 0 -0.68607,-0.74375 m -3.35782,0.031 h -0.32782 l -0.35534,0.94959 -0.38602,-0.94959 h -0.36381 l 0.57494,1.32291 -0.26458,0.65379 h 0.33046 l 0.79164,-1.97802 m -2.31352,1.23137 c -0.24447,0 -0.40269,-0.15505 -0.40269,-0.48472 v -0.0225 c 0,-0.32676 0.16668,-0.48763 0.39978,-0.48763 0.21961,0 0.38629,0.16087 0.38629,0.48763 v 0.0225 c 0,0.31565 -0.13626,0.48472 -0.38338,0.48472 m 7.28504,0 c -0.21643,0 -0.37783,-0.15505 -0.37783,-0.47916 v -0.0225 c 0,-0.3175 0.14473,-0.49319 0.39159,-0.49319 0.24685,0 0.39185,0.16087 0.39185,0.48472 v 0.0228 a 0.41327917,0.41327917 0 0 1 -0.40561,0.48737 m 1.85817,0 c -0.24448,0 -0.4027,-0.15505 -0.4027,-0.48472 v -0.0225 c 0,-0.32676 0.16669,-0.48763 0.40005,-0.48763 0.21908,0 0.38576,0.16087 0.38576,0.48763 v 0.0225 c 0,0.31565 -0.13599,0.48472 -0.38311,0.48472 m 1.6801,0.006 a 0.41671875,0.41671875 0 0 1 -0.40269,-0.49027 v -0.0225 a 0.40931042,0.40931042 0 1 1 0.80274,0.003 v 0.0198 a 0.4175125,0.4175125 0 0 1 -0.40005,0.49027 m 1.69704,0 a 0.41671875,0.41671875 0 0 1 -0.4027,-0.49027 v -0.0225 a 0.40931042,0.40931042 0 1 1 0.80275,0.003 v 0.0198 a 0.4175125,0.4175125 0 0 1 -0.40005,0.49027 m -7.22101,-0.65378 a 0.37491458,0.37491458 0 0 1 0.37201,-0.36619 0.33231667,0.33231667 0 0 1 0.35268,0.36619 h -0.72469 m -1.67481,-0.1913 v -0.64267 h 0.29713 c 0.236,0 0.37782,0.0794 0.37782,0.31009 v 0.0111 a 0.31353125,0.31353125 0 0 1 -0.37782,0.32147 h -0.29714 m 11.30379,-1.07368 h -0.33575 v 2.15847 h 0.33575 v -0.86783 a 0.32437917,0.32437917 0 0 1 0.34184,-0.35216 0.2667,0.2667 0 0 1 0.28893,0.32385 v 0.89614 h 0.33602 v -0.92604 c 0,-0.4056 -0.20558,-0.57758 -0.49715,-0.57758 a 0.49979792,0.49979792 0 0 0 -0.46964,0.26458 v -0.91725"
         id="path5152" />
    </g>
  </g>
</svg>
