
<!-- Created with Inkscape (http://www.inkscape.org/) -->

<svg
   xmlns:dc="http://purl.org/dc/elements/1.1/"
   xmlns:cc="http://creativecommons.org/ns#"
   xmlns:rdf="http://www.w3.org/1999/02/22-rdf-syntax-ns#"
   xmlns:svg="http://www.w3.org/2000/svg"
   xmlns="http://www.w3.org/2000/svg"
   xmlns:sodipodi="http://sodipodi.sourceforge.net/DTD/sodipodi-0.dtd"
   xmlns:inkscape="http://www.inkscape.org/namespaces/inkscape"
   width="300"
   height="130"
   viewBox="0 0 79.374998 34.395834"
   version="1.1"
   id="svg8"
   inkscape:version="0.92.2 (5c3e80d, 2017-08-06)"
   sodipodi:docname="3.svg">
  <defs
     id="defs2">
    <style
       id="style817">
      .cls-1 {
        fill: #898989;
        fill-rule: evenodd;
      }
    </style>
    <style
       id="style5148">
      .cls-1 {
        fill: #898989;
        fill-rule: evenodd;
      }
    </style>
    <style
       id="style5162">
      .cls-1 {
        fill: #898989;
      }

      .cls-1, .cls-2 {
        fill-rule: evenodd;
      }

      .cls-2 {
        fill: #cacaca;
      }
    </style>
  </defs>
  <sodipodi:namedview
     id="base"
     pagecolor="#ffffff"
     bordercolor="#666666"
     borderopacity="1.0"
     inkscape:pageopacity="0.0"
     inkscape:pageshadow="2"
     inkscape:zoom="1.8101934"
     inkscape:cx="261.24198"
     inkscape:cy="43.948379"
     inkscape:document-units="mm"
     inkscape:current-layer="layer1"
     showgrid="false"
     showguides="false"
     units="px"
     inkscape:window-width="1680"
     inkscape:window-height="987"
     inkscape:window-x="-8"
     inkscape:window-y="-8"
     inkscape:window-maximized="1">
    <sodipodi:guide
       position="0,0"
       orientation="0,793.70079"
       id="guide829"
       inkscape:locked="false" />
    <sodipodi:guide
       position="210,0"
       orientation="-1122.5197,0"
       id="guide831"
       inkscape:locked="false" />
    <sodipodi:guide
       position="210,297"
       orientation="0,-793.70079"
       id="guide833"
       inkscape:locked="false" />
    <sodipodi:guide
       position="0,297"
       orientation="1122.5197,0"
       id="guide835"
       inkscape:locked="false" />
  </sodipodi:namedview>
  <metadata
     id="metadata5">
    <rdf:RDF>
      <cc:Work
         rdf:about="">
        <dc:format>image/svg+xml</dc:format>
        <dc:type
           rdf:resource="http://purl.org/dc/dcmitype/StillImage" />
        <dc:title></dc:title>
      </cc:Work>
    </rdf:RDF>
  </metadata>
  <g
     inkscape:label="Layer 1"
     inkscape:groupmode="layer"
     id="layer1"
     transform="translate(0,-262.60414)">
    <g
       id="g5223"
       transform="matrix(0.26458333,0,0,0.26458333,18.387788,271.86456)"
       style="">
      <path
         id="path5212"
         transform="translate(-319,-267)"
         d="m 349.62,327 a 0.95,0.95 0 0 0 -0.436,-0.117 3.185,3.185 0 0 1 -1.351,-0.728 c -0.158,-0.14 -0.157,-0.143 -0.012,-0.312 0.145,-0.169 0.31,-0.355 0.46,-0.526 a 0.65,0.65 0 0 1 0.259,0.2 2.459,2.459 0 0 0 2.363,0.589 1.559,1.559 0 0 0 1.2,-1.282 6.2,6.2 0 0 0 0.07,-1.259 c -0.082,-0.037 -0.1,0.025 -0.129,0.061 a 1.915,1.915 0 0 1 -1.194,0.722 2.686,2.686 0 0 1 -2.915,-1.23 2.839,2.839 0 0 1 0.16,-3.084 2.376,2.376 0 0 1 1.76,-0.983 2.8,2.8 0 0 1 0.958,0.015 1.993,1.993 0 0 1 1.347,0.937 5.878,5.878 0 0 0 0.01,-0.665 0.147,0.147 0 0 1 0.177,-0.183 c 0.186,0.008 0.372,0.006 0.558,0 a 0.121,0.121 0 0 1 0.142,0.15 c 0,0.062 0,0.124 0,0.186 q 0,2.313 0,4.625 a 3.917,3.917 0 0 1 -0.135,1.1 2.28,2.28 0 0 1 -1.683,1.658 0.675,0.675 0 0 0 -0.369,0.117 h -1.24 z m 0.735,-7.157 a 1.785,1.785 0 0 0 -1.834,1.914 1.818,1.818 0 0 0 1.823,1.84 1.775,1.775 0 0 0 1.829,-1.876 1.755,1.755 0 0 0 -1.818,-1.878 z M 398.1,301.589 v 0.353 q 0,4.813 0,9.627 c 0,0.4 0.057,0.377 -0.388,0.377 h -3.57 c -0.072,0 -0.145,0 -0.217,0 a 0.126,0.126 0 0 1 -0.149,-0.149 c 0,-0.072 0,-0.144 0,-0.217 v -24.688 c 0,-0.369 -0.052,-0.349 0.351,-0.349 h 3.414 0.218 a 0.1,0.1 0 0 1 0.113,0.114 c 0,0.083 0,0.166 0,0.248 v 2.16 c 0.084,0.042 0.106,-0.013 0.133,-0.054 a 6.076,6.076 0 0 1 4.126,-2.726 8.774,8.774 0 0 1 5.656,0.693 7.765,7.765 0 0 1 3.86,4.273 10.4,10.4 0 0 1 0.706,3.975 9.785,9.785 0 0 1 -1.072,4.546 7.78,7.78 0 0 1 -5.688,4.278 8.062,8.062 0 0 1 -5.255,-0.694 6.564,6.564 0 0 1 -2,-1.6 0.346,0.346 0 0 0 -0.238,-0.167 z m 5.6,-1.3 a 4.55,4.55 0 0 0 3.871,-2.92 5.3,5.3 0 0 0 -0.028,-4.512 4.652,4.652 0 0 0 -2.707,-2.545 5.206,5.206 0 0 0 -2.441,-0.285 4.714,4.714 0 0 0 -3.684,2.333 5.339,5.339 0 0 0 -0.734,3.274 c 0.196,2.514 2.114,4.695 5.723,4.659 z m -75.44,-7.276 v -10.275 c 0,-0.072 0,-0.145 0,-0.217 0,-0.234 0,-0.237 -0.242,-0.238 -0.5,0 -0.994,0 -1.49,0 -0.226,0 -0.232,0 -0.232,-0.218 0,-1.16 0,-2.319 0,-3.478 0,-0.155 0.039,-0.237 0.207,-0.217 a 1.145,1.145 0 0 0 0.155,0 c 3.487,0 6.974,-0.009 10.461,0 a 13.138,13.138 0 0 1 4.713,0.8 6.7,6.7 0 0 1 3.011,2.161 6.313,6.313 0 0 1 1.228,3.076 9.716,9.716 0 0 1 -0.245,3.939 5.792,5.792 0 0 1 -3.224,3.8 10.551,10.551 0 0 1 -3,0.87 24.221,24.221 0 0 1 -3.68,0.242 q -1.4,0 -2.794,0 c -0.379,0 -0.335,-0.043 -0.335,0.325 q 0,3.927 0,7.856 c 0,0.694 0,1.387 0,2.081 0,0.234 0,0.238 -0.24,0.239 h -4.066 c -0.219,0 -0.223,-0.006 -0.225,-0.223 0,-0.466 0,-0.932 0,-1.4 v -9.129 z m 4.533,-7.193 q 0,1.645 0,3.291 c 0,0.249 0,0.252 0.253,0.252 q 1.536,0 3.071,0 a 13.07,13.07 0 0 0 1.886,-0.13 5.481,5.481 0 0 0 1.857,-0.569 2.786,2.786 0 0 0 1.42,-1.8 4.136,4.136 0 0 0 0.07,-1.815 2.794,2.794 0 0 0 -1.149,-1.847 4.065,4.065 0 0 0 -1.168,-0.562 8.989,8.989 0 0 0 -2.571,-0.358 c -1.127,-0.017 -2.254,-0.007 -3.382,-0.009 -0.051,0 -0.1,0 -0.155,0 a 0.11,0.11 0 0 0 -0.131,0.128 c 0,0.072 0,0.145 0,0.217 v 3.2 z m 25.86,9.407 a 8.773,8.773 0 0 1 7.1,-8.876 10.108,10.108 0 0 1 6.346,0.588 8.425,8.425 0 0 1 5.163,6.725 9.25,9.25 0 0 1 -0.54,5 8.255,8.255 0 0 1 -4.476,4.632 10,10 0 0 1 -8.784,-0.162 8.335,8.335 0 0 1 -4.661,-6.28 12.39,12.39 0 0 1 -0.153,-1.623 z m 14.419,-0.04 a 8.133,8.133 0 0 0 -0.1,-1.067 4.882,4.882 0 0 0 -2.937,-3.738 5.125,5.125 0 0 0 -2.642,-0.353 4.645,4.645 0 0 0 -3.019,1.486 5.172,5.172 0 0 0 -1.276,4.749 5.036,5.036 0 0 0 9.969,-1.073 z m 45,1.523 a 4.389,4.389 0 0 0 0.624,1.891 4.224,4.224 0 0 0 3.1,2.056 5.519,5.519 0 0 0 5.265,-1.983 c 0.236,-0.271 0.236,-0.271 0.518,-0.058 q 1.275,0.966 2.548,1.931 a 0.564,0.564 0 0 1 0.231,0.222 9.18,9.18 0 0 1 -1.827,1.748 8.8,8.8 0 0 1 -4.581,1.639 9.979,9.979 0 0 1 -5.108,-0.872 8.413,8.413 0 0 1 -4.967,-6.535 9.165,9.165 0 0 1 0.658,-5.434 8.571,8.571 0 0 1 5.685,-4.808 9.65,9.65 0 0 1 4.969,-0.163 7.088,7.088 0 0 1 4.963,4.05 10.6,10.6 0 0 1 0.936,3.487 23.407,23.407 0 0 1 0.081,2.512 c 0,0.277 0,0.278 -0.3,0.278 H 429.1 q -5.324,0 -10.647,0 a 0.808,0.808 0 0 0 -0.384,0.043 z m 0.013,-3.294 h 8.643 a 0.11,0.11 0 0 0 0.124,-0.136 c -0.018,-0.195 -0.027,-0.392 -0.058,-0.585 a 3.631,3.631 0 0 0 -2.086,-2.888 5.258,5.258 0 0 0 -3.029,-0.394 4.214,4.214 0 0 0 -3.597,4.007 z m -37.15,5.432 a 1.321,1.321 0 0 1 0.29,0.273 6.538,6.538 0 0 0 1.567,1.259 4.395,4.395 0 0 0 3.77,0.277 2.61,2.61 0 0 0 0.814,-0.5 1.587,1.587 0 0 0 -0.107,-2.441 3.881,3.881 0 0 0 -1.08,-0.532 c -0.825,-0.277 -1.681,-0.426 -2.526,-0.622 a 13.244,13.244 0 0 1 -2.281,-0.692 4.989,4.989 0 0 1 -1.625,-1.063 3.978,3.978 0 0 1 -1.107,-2.5 5.147,5.147 0 0 1 1.024,-3.825 5.553,5.553 0 0 1 2.1,-1.6 9.057,9.057 0 0 1 4.016,-0.761 8.918,8.918 0 0 1 3.552,0.76 5.92,5.92 0 0 1 2.18,1.655 c 0.162,0.2 0.161,0.2 -0.02,0.366 l -2.492,2.243 c -0.241,0.217 -0.207,0.186 -0.389,-0.043 a 3.8,3.8 0 0 0 -2.375,-1.46 3.844,3.844 0 0 0 -2.076,0.157 2.194,2.194 0 0 0 -0.848,0.556 1.4,1.4 0 0 0 0.31,2.186 5.618,5.618 0 0 0 1.445,0.547 c 0.96,0.248 1.939,0.415 2.893,0.687 a 9.156,9.156 0 0 1 1.9,0.743 4.27,4.27 0 0 1 2.329,3.708 5.125,5.125 0 0 1 -0.676,3.071 5.277,5.277 0 0 1 -2.285,1.988 9.3,9.3 0 0 1 -3.126,0.846 12.218,12.218 0 0 1 -3.8,-0.17 7.569,7.569 0 0 1 -4,-2.163 c -0.043,-0.045 -0.083,-0.093 -0.13,-0.134 -0.105,-0.094 -0.075,-0.167 0.017,-0.253 0.911,-0.85 1.815,-1.699 2.733,-2.559 z m 80.311,1.2 a 0.524,0.524 0 0 1 0.029,0.278 q 0,1.506 0,3.012 c 0,0.294 0,0.3 -0.275,0.4 a 7.489,7.489 0 0 1 -1.875,0.4 11.658,11.658 0 0 1 -2.939,-0.051 5.731,5.731 0 0 1 -1.6,-0.46 3.6,3.6 0 0 1 -1.9,-2.112 8.051,8.051 0 0 1 -0.428,-2.34 c -0.024,-0.434 -0.02,-0.869 -0.02,-1.3 q 0,-3.648 0,-7.3 c 0,-0.382 0.048,-0.346 -0.35,-0.346 q -1.458,0 -2.917,0 c -0.281,0 -0.3,0.045 -0.3,-0.311 q 0,-1.537 0,-3.074 c 0,-0.291 0,-0.293 0.284,-0.294 q 1.459,0 2.918,0 c 0.072,0 0.145,0 0.217,0 a 0.127,0.127 0 0 0 0.146,-0.152 c 0,-0.073 0,-0.145 0,-0.218 v -4.253 c 0,-0.073 0,-0.145 0,-0.218 a 0.124,0.124 0 0 1 0.142,-0.153 c 0.062,0 0.125,0 0.187,0 h 3.662 c 0.335,0 0.314,-0.026 0.314,0.324 v 4.284 c 0,0.073 0,0.145 0,0.218 a 0.137,0.137 0 0 0 0.161,0.169 c 0.073,0 0.145,0 0.218,0 h 3.941 c 0.072,0 0.145,0.006 0.217,0 a 0.156,0.156 0 0 1 0.2,0.193 c -0.008,0.289 0,0.579 0,0.869 0,0.787 0,1.573 0,2.36 0,0.254 0,0.257 -0.255,0.258 q -2.048,0 -4.1,0 c -0.072,0 -0.145,0 -0.217,0 a 0.131,0.131 0 0 0 -0.164,0.161 c 0,0.061 0,0.124 0,0.186 q 0,3.6 0,7.2 a 4.727,4.727 0 0 0 0.172,1.349 1.794,1.794 0 0 0 1.6,1.353 4.832,4.832 0 0 0 2.84,-0.415 0.274,0.274 0 0 1 0.089,-0.016 z m -16,-1.313 a 0.411,0.411 0 0 1 0.185,0.159 q 1.251,1.338 2.5,2.679 c 0.234,0.25 0.2,0.209 -0.028,0.423 a 5.546,5.546 0 0 1 -0.914,0.692 9.78,9.78 0 0 1 -5.3,1.5 9.319,9.319 0 0 1 -6.321,-2.408 8.377,8.377 0 0 1 -2.676,-4.987 9.46,9.46 0 0 1 0.518,-5.152 8.267,8.267 0 0 1 4.256,-4.526 9.629,9.629 0 0 1 7.969,-0.3 7.255,7.255 0 0 1 2.55,1.728 c 0.18,0.187 0.182,0.188 0.012,0.359 q -1.326,1.329 -2.655,2.656 c -0.162,0.162 -0.166,0.161 -0.333,0 -0.229,-0.225 -0.473,-0.433 -0.723,-0.634 a 4,4 0 0 0 -3.884,-0.714 4.628,4.628 0 0 0 -3.135,2.907 5.264,5.264 0 0 0 0.9,5.556 4.613,4.613 0 0 0 3.342,1.618 4.451,4.451 0 0 0 1.893,-0.243 4.034,4.034 0 0 0 1.65,-1.121 0.484,0.484 0 0 1 0.194,-0.191 z m -92.958,-9.471 a 1.063,1.063 0 0 0 0.221,-0.329 5.575,5.575 0 0 1 6.295,-2.625 0.205,0.205 0 0 1 0.186,0.231 c 0,1.294 0,2.588 0,3.882 a 0.542,0.542 0 0 1 -0.022,0.1 c -0.458,-0.092 -0.907,-0.215 -1.369,-0.265 a 5.5,5.5 0 0 0 -2.656,0.288 4.079,4.079 0 0 0 -2.522,3.013 4.421,4.421 0 0 0 -0.13,1.106 q 0,4.363 0,8.727 c 0,0.416 0.046,0.371 -0.356,0.372 H 348.3 c -0.051,0 -0.1,0 -0.155,0 a 0.145,0.145 0 0 1 -0.187,-0.173 c 0,-0.062 0,-0.124 0,-0.186 v -16.49 c 0,-0.408 -0.05,-0.376 0.389,-0.376 q 1.77,0 3.539,0 c 0.052,0 0.1,0 0.155,0 0.241,0 0.244,0.006 0.246,0.235 0,0.29 0,0.58 0,0.87 v 1.617 z M 319,291.9 v -6.427 c 0,-0.338 0,-0.339 0.335,-0.339 h 3.693 c 0.339,0 0.317,-0.021 0.317,0.321 v 12.636 a 1.516,1.516 0 0 0 0.064,0.551 1.232,1.232 0 0 0 1,0.831 0.194,0.194 0 0 1 0.2,0.229 c 0,1.283 0,2.566 0,3.849 0,0.217 -0.007,0.227 -0.263,0.21 a 5.538,5.538 0 0 1 -4.2,-2.212 5.391,5.391 0 0 1 -1.092,-2.7 A 8.307,8.307 0 0 1 319,297.83 Z m 42.575,28.3 0.293,0.085 a 1.983,1.983 0 0 1 0.211,3.711 3.854,3.854 0 0 1 -1.6,0.334 c -0.8,0.011 -1.592,0.007 -2.388,0.007 -0.226,0 -0.229,0 -0.23,-0.246 q 0,-2.45 0,-4.9 0,-1.226 0,-2.451 c 0,-0.237 0,-0.241 0.235,-0.241 0.785,0 1.571,0 2.356,0.006 a 3.247,3.247 0 0 1 1.239,0.245 1.765,1.765 0 0 1 1.091,2.25 1.613,1.613 0 0 1 -0.871,1.037 c -0.098,0.054 -0.2,0.1 -0.336,0.163 z m -2.768,1.895 c 0,0.393 0.006,0.786 0,1.179 a 0.157,0.157 0 0 0 0.2,0.192 c 0.537,-0.01 1.075,0 1.612,-0.014 a 2.118,2.118 0 0 0 0.979,-0.261 1.157,1.157 0 0 0 0.651,-1.05 1.246,1.246 0 0 0 -0.614,-1.173 1.865,1.865 0 0 0 -0.854,-0.251 c -0.589,-0.038 -1.178,0 -1.767,-0.02 -0.17,0 -0.207,0.066 -0.2,0.219 -0.002,0.397 -0.007,0.79 -0.007,1.184 z m 0.943,-2.282 V 319.8 c 0.259,0 0.517,0 0.775,0 a 1.721,1.721 0 0 0 0.575,-0.119 1.1,1.1 0 0 0 0.748,-1.19 1.027,1.027 0 0 0 -0.823,-1 2.1,2.1 0 0 0 -0.272,-0.061 13.292,13.292 0 0 0 -1.8,-0.053 0.124,0.124 0 0 0 -0.151,0.143 c 0,0.714 0,1.428 0,2.143 a 0.136,0.136 0 0 0 0.169,0.157 c 0.262,-0.004 0.52,-0.003 0.779,-0.003 z m -40.737,0.6 v -3.507 c 0,-0.073 0,-0.146 0,-0.218 a 0.161,0.161 0 0 1 0.2,-0.2 c 0.269,0.007 0.538,0 0.807,0 0.683,0 1.365,0 2.048,0 a 3.956,3.956 0 0 1 1.955,0.524 3.553,3.553 0 0 1 1.827,2.8 4.34,4.34 0 0 1 -0.224,2.137 3.64,3.64 0 0 1 -2.789,2.306 3.69,3.69 0 0 1 -0.832,0.078 q -1.35,0 -2.7,0 c -0.288,0 -0.291,0 -0.291,-0.289 q -0.002,-1.806 -0.001,-3.623 z m 0.954,0 q 0,1.4 0,2.794 c 0,0.249 0,0.251 0.258,0.253 0.341,0 0.682,0 1.024,0 a 7.139,7.139 0 0 0 1.3,-0.069 2.609,2.609 0 0 0 2.217,-1.988 3.975,3.975 0 0 0 0.071,-1.6 2.57,2.57 0 0 0 -1.487,-2.108 3.542,3.542 0 0 0 -1.443,-0.317 c -0.538,-0.013 -1.076,-0.007 -1.613,-0.007 -0.319,0 -0.326,-0.05 -0.326,0.314 q 0,1.369 -0.001,2.735 z M 435,319.94 a 2.006,2.006 0 0 1 3.369,0 0.749,0.749 0 0 0 0.2,-0.229 1.663,1.663 0 0 1 1.363,-0.684 2.858,2.858 0 0 1 0.919,0.115 1.612,1.612 0 0 1 1.089,1.483 6.455,6.455 0 0 1 0.044,0.774 c 0.006,0.89 0,1.78 0,2.67 0,0.27 0,0.271 -0.271,0.274 -0.155,0 -0.31,0 -0.465,0 a 0.126,0.126 0 0 1 -0.15,-0.147 c 0,-0.072 0,-0.145 0,-0.217 q 0,-1.273 0,-2.546 a 2.731,2.731 0 0 0 -0.079,-0.8 1.064,1.064 0 0 0 -0.973,-0.783 1.352,1.352 0 0 0 -1.519,1.413 c -0.013,0.889 0,1.78 0,2.67 0,0.41 0,0.41 -0.411,0.41 -0.463,0 -0.463,0 -0.463,-0.448 0,-0.787 0,-1.573 0,-2.36 a 3.908,3.908 0 0 0 -0.1,-1.016 0.8,0.8 0 0 0 -0.873,-0.674 1.4,1.4 0 0 0 -1.5,1.122 3.151,3.151 0 0 0 -0.112,0.859 c 0,0.745 0,1.49 0,2.235 0,0.294 0.024,0.282 -0.29,0.282 -0.145,0 -0.29,0 -0.435,0 a 0.121,0.121 0 0 1 -0.15,-0.143 c 0,-0.072 0,-0.145 0,-0.217 0,-1.159 0,-2.318 0,-3.478 0,-0.383 -0.023,-0.765 -0.052,-1.146 -0.011,-0.15 0.038,-0.21 0.188,-0.2 a 1.176,1.176 0 0 1 0.605,0.039 0.863,0.863 0 0 1 0.064,0.562 c -0.008,0.04 -0.007,0.081 0.002,0.18 z m -31.748,0.484 v -3.539 c 0,-0.073 0,-0.145 0,-0.218 a 0.13,0.13 0 0 1 0.157,-0.166 c 0.041,0 0.083,0 0.125,0 h 2.079 a 4.2,4.2 0 0 1 1.284,0.185 1.888,1.888 0 0 1 1.418,1.823 2.007,2.007 0 0 1 -1.656,2.212 4.653,4.653 0 0 1 -1.046,0.117 q -0.543,0 -1.086,0 c -0.377,0 -0.337,-0.041 -0.337,0.324 0,0.879 0,1.759 0,2.639 a 0.7,0.7 0 0 1 -0.046,0.5 0.722,0.722 0 0 1 -0.48,0.034 c -0.476,0 -0.406,0.07 -0.408,-0.408 -0.009,-1.164 -0.007,-2.334 -0.007,-3.503 z m 0.937,-1.766 c 0,0.372 0,0.745 0,1.117 0,0.1 0.006,0.187 0.142,0.184 a 14.075,14.075 0 0 0 1.86,-0.048 1.223,1.223 0 0 0 1,-0.651 1.246,1.246 0 0 0 -0.8,-1.8 1.5,1.5 0 0 0 -0.151,-0.033 14.651,14.651 0 0 0 -1.92,-0.053 c -0.121,0 -0.127,0.076 -0.127,0.165 q -0.005,0.561 -0.007,1.119 z m 59.352,3.37 c -0.62,0 -1.241,0 -1.861,0 -0.229,0 -0.231,0.007 -0.191,0.224 a 1.711,1.711 0 0 0 1.65,1.412 1.937,1.937 0 0 0 1.516,-0.647 c 0.1,-0.109 0.166,-0.131 0.276,-0.027 0.09,0.086 0.195,0.154 0.292,0.231 0.237,0.186 0.233,0.182 0.023,0.416 a 2.7,2.7 0 0 1 -2.184,0.839 2.557,2.557 0 0 1 -2.553,-2.613 3.033,3.033 0 0 1 0.2,-1.216 2.57,2.57 0 0 1 2.574,-1.623 2.336,2.336 0 0 1 2.322,2.251 c 0.017,0.175 0.022,0.351 0.022,0.527 0,0.219 0,0.224 -0.221,0.224 -0.627,0.004 -1.247,0.002 -1.868,0.002 z m 1.116,-0.76 a 1.33,1.33 0 0 0 -0.912,-1.344 2.113,2.113 0 0 0 -0.8,-0.076 1.519,1.519 0 0 0 -1.472,1.42 h 3.182 z M 385,322.059 a 1.67,1.67 0 0 0 1.52,1.6 1.9,1.9 0 0 0 1.643,-0.634 0.174,0.174 0 0 1 0.3,-0.02 3.612,3.612 0 0 0 0.367,0.286 c 0.116,0.081 0.1,0.153 0.018,0.25 a 2.5,2.5 0 0 1 -0.958,0.719 3.186,3.186 0 0 1 -1.89,0.14 2.384,2.384 0 0 1 -1.8,-1.593 3.019,3.019 0 0 1 -0.1,-1.8 2.552,2.552 0 0 1 2.678,-1.984 2.319,2.319 0 0 1 2.325,2.211 c 0.02,0.195 0.02,0.392 0.037,0.588 0.015,0.169 -0.063,0.222 -0.219,0.2 a 1.648,1.648 0 0 0 -0.186,0 q -1.705,0 -3.412,0 A 0.653,0.653 0 0 0 385,322.059 Z m -0.022,-0.776 h 1.452 c 0.516,0 1.032,0 1.548,0 0.215,0 0.231,-0.016 0.2,-0.231 a 1.282,1.282 0 0 0 -0.787,-1.07 1.852,1.852 0 0 0 -1.588,0.047 1.512,1.512 0 0 0 -0.825,1.254 z m 24.923,0.775 a 1.683,1.683 0 0 0 1.044,1.468 1.926,1.926 0 0 0 2.29,-0.639 c 0.183,0.141 0.351,0.278 0.527,0.4 0.116,0.081 0.107,0.148 0.021,0.246 a 2.516,2.516 0 0 1 -1.044,0.755 3.226,3.226 0 0 1 -1.742,0.129 2.5,2.5 0 0 1 -2.018,-2.269 3.344,3.344 0 0 1 0.081,-1.232 2.561,2.561 0 0 1 2.66,-1.893 2.34,2.34 0 0 1 2.337,2.307 0.872,0.872 0 0 1 -0.039,0.654 0.9,0.9 0 0 1 -0.6,0.039 c -1.055,0 -2.11,0 -3.165,0 a 0.951,0.951 0 0 0 -0.353,0.035 z m 0.019,-0.775 h 0.608 c 0.8,0 1.608,0 2.412,0 0.188,0 0.2,-0.021 0.18,-0.19 a 1.383,1.383 0 0 0 -1.14,-1.223 2.5,2.5 0 0 0 -0.647,-0.017 1.527,1.527 0 0 0 -1.413,1.43 z m 37.932,3.059 c -0.27,0 -0.486,0 -0.7,0 a 0.161,0.161 0 0 1 -0.186,-0.187 1.713,1.713 0 0 0 -0.049,-0.457 0.264,0.264 0 0 0 -0.192,0.147 2.293,2.293 0 0 1 -2.847,0.249 1.547,1.547 0 0 1 -0.137,-2.294 2.533,2.533 0 0 1 0.981,-0.509 7.639,7.639 0 0 1 1.846,-0.185 c 0.36,-0.007 0.36,0 0.3,-0.363 a 0.989,0.989 0 0 0 -0.933,-0.885 2.25,2.25 0 0 0 -1.7,0.418 c -0.127,0.1 -0.207,0.1 -0.3,-0.025 a 2.44,2.44 0 0 0 -0.192,-0.2 c -0.232,-0.242 -0.233,-0.244 0.043,-0.456 a 2.955,2.955 0 0 1 1.924,-0.567 3.058,3.058 0 0 1 0.616,0.062 1.635,1.635 0 0 1 1.39,1.464 4.481,4.481 0 0 1 0.061,0.741 c 0,0.621 0,1.242 0,1.862 a 5.351,5.351 0 0 0 0.075,1.185 z m -1.633,-2.489 v 0 c -0.135,0 -0.269,-0.008 -0.4,0 a 2.79,2.79 0 0 0 -1.141,0.256 0.8,0.8 0 0 0 -0.432,0.825 0.723,0.723 0 0 0 0.529,0.691 1.534,1.534 0 0 0 2.125,-1.625 0.126,0.126 0 0 0 -0.15,-0.146 c -0.179,0.001 -0.35,-10e-4 -0.531,-10e-4 z m -20.019,2.626 a 2.631,2.631 0 0 1 -2.664,-1.892 2.781,2.781 0 0 1 0.842,-2.959 2.811,2.811 0 0 1 1.724,-0.6 2.65,2.65 0 0 1 2.694,1.743 2.813,2.813 0 0 1 -0.048,2.092 2.55,2.55 0 0 1 -2.222,1.6 c -0.11,0.008 -0.226,0.01 -0.326,0.016 z m 0.008,-4.636 a 1.752,1.752 0 0 0 -1.8,1.436 2.382,2.382 0 0 0 -0.03,0.771 1.788,1.788 0 0 0 2.355,1.534 1.7,1.7 0 0 0 1.271,-1.622 1.8,1.8 0 0 0 -1.793,-2.119 z m -57.846,3.708 a 2.079,2.079 0 0 1 -2.166,0.9 1.71,1.71 0 0 1 -1.48,-1.5 3.3,3.3 0 0 1 -0.049,-0.524 c 0,-1 0,-2.008 0,-3.012 0,-0.248 0,-0.257 0.258,-0.249 a 0.845,0.845 0 0 1 0.6,0.051 0.964,0.964 0 0 1 0.032,0.573 c 0,0.828 0,1.656 0,2.484 a 1.9,1.9 0 0 0 0.128,0.759 0.969,0.969 0 0 0 0.883,0.626 1.464,1.464 0 0 0 1.685,-1.284 4.241,4.241 0 0 0 0.066,-0.834 q 0,-1.071 0,-2.142 c 0,-0.231 0,-0.232 0.24,-0.236 0.165,0 0.331,0 0.5,0 a 0.117,0.117 0 0 1 0.141,0.147 c 0,0.072 0,0.145 0,0.217 0,1.19 0,2.38 0,3.57 0,0.341 0.03,0.682 0.04,1.023 0.006,0.221 0,0.224 -0.214,0.228 -0.156,0 -0.311,0 -0.466,0 a 0.124,0.124 0 0 1 -0.151,-0.142 c -0.009,-0.197 -0.027,-0.39 -0.044,-0.655 z m -25.806,-3.6 a 1.96,1.96 0 0 1 1.149,-0.853 2.333,2.333 0 0 1 1.374,0.047 1.59,1.59 0 0 1 1.019,1.013 2.637,2.637 0 0 1 0.158,0.882 c 0,1.014 0,2.029 0,3.043 0,0.251 0,0.251 -0.256,0.255 q -0.186,0 -0.372,0 c -0.243,0 -0.243,0 -0.246,-0.262 0,-0.073 0,-0.145 0,-0.217 v -2.578 a 2.2,2.2 0 0 0 -0.111,-0.733 0.974,0.974 0 0 0 -0.952,-0.707 1.46,1.46 0 0 0 -1.653,1.324 4.09,4.09 0 0 0 -0.064,0.741 c 0,0.735 0,1.47 0,2.2 0,0.22 -0.005,0.227 -0.22,0.225 a 1,1 0 0 1 -0.6,-0.037 0.807,0.807 0 0 1 -0.049,-0.593 q -0.009,-1.615 0,-3.23 c 0,-0.362 -0.023,-0.723 -0.044,-1.085 -0.014,-0.226 0,-0.233 0.209,-0.232 a 0.982,0.982 0 0 1 0.574,0.033 0.845,0.845 0 0 1 0.067,0.561 c 0.006,0.052 0.009,0.088 0.02,0.207 z m 107.594,0 a 1.945,1.945 0 0 1 1.176,-0.864 2.335,2.335 0 0 1 1.4,0.071 1.6,1.6 0 0 1 0.995,1.077 2.741,2.741 0 0 1 0.131,0.824 q 0,1.523 0,3.044 c 0,0.223 0,0.23 -0.218,0.228 a 1.015,1.015 0 0 1 -0.6,-0.035 0.793,0.793 0 0 1 -0.051,-0.592 c -0.008,-0.787 0,-1.573 0,-2.36 a 2.421,2.421 0 0 0 -0.1,-0.766 0.983,0.983 0 0 0 -0.989,-0.743 1.427,1.427 0 0 0 -1.6,1.2 2.994,2.994 0 0 0 -0.091,0.737 q 0,1.149 0,2.3 c 0,0.258 0,0.268 -0.245,0.26 a 0.822,0.822 0 0 1 -0.592,-0.053 0.929,0.929 0 0 1 -0.035,-0.571 c 0,-1.191 0,-2.381 -0.009,-3.572 0,-0.258 -0.032,-0.516 -0.041,-0.774 -0.007,-0.2 0,-0.206 0.209,-0.206 a 0.986,0.986 0 0 1 0.575,0.033 0.845,0.845 0 0 1 0.069,0.561 c 0.009,0.05 0.01,0.087 0.019,0.21 z m -71.155,0 a 1.936,1.936 0 0 1 1.174,-0.867 2.331,2.331 0 0 1 1.373,0.059 1.614,1.614 0 0 1 1.036,1.114 2.843,2.843 0 0 1 0.123,0.825 q 0,1.49 0,2.98 c 0,0.264 0,0.272 -0.274,0.264 a 0.8,0.8 0 0 1 -0.563,-0.048 0.859,0.859 0 0 1 -0.036,-0.54 c 0,-0.807 0,-1.614 0,-2.42 a 2.294,2.294 0 0 0 -0.117,-0.794 0.975,0.975 0 0 0 -0.932,-0.692 1.462,1.462 0 0 0 -1.666,1.308 3.825,3.825 0 0 0 -0.065,0.709 c 0,0.745 0,1.49 0,2.235 0,0.239 0,0.241 -0.233,0.244 -0.165,0 -0.331,0 -0.5,0 a 0.121,0.121 0 0 1 -0.145,-0.148 c 0,-0.072 0,-0.144 0,-0.217 0,-1.179 0,-2.359 0,-3.538 0,-0.363 -0.027,-0.723 -0.052,-1.084 a 0.152,0.152 0 0 1 0.191,-0.195 1.136,1.136 0 0 1 0.6,0.04 0.876,0.876 0 0 1 0.063,0.563 c 0.017,0.051 0.018,0.093 0.028,0.215 z m 12.952,4.513 a 3.306,3.306 0 0 1 -1.06,-0.152 1.987,1.987 0 0 1 -0.9,-0.681 c -0.068,-0.087 -0.09,-0.153 0.016,-0.229 0.16,-0.114 0.315,-0.236 0.467,-0.36 a 0.125,0.125 0 0 1 0.207,0.018 1.482,1.482 0 0 0 0.129,0.134 1.558,1.558 0 0 0 1.632,0.379 0.916,0.916 0 0 0 0.33,-0.169 0.642,0.642 0 0 0 -0.029,-1.075 1.954,1.954 0 0 0 -0.665,-0.245 c -0.26,-0.065 -0.523,-0.123 -0.782,-0.194 a 2.987,2.987 0 0 1 -0.378,-0.136 1.336,1.336 0 0 1 -0.231,-2.328 2.364,2.364 0 0 1 1.434,-0.413 2.271,2.271 0 0 1 0.961,0.216 1.567,1.567 0 0 1 0.431,0.3 c 0.366,0.361 0.362,0.4 -0.067,0.687 l -0.052,0.034 c -0.268,0.177 -0.273,0.182 -0.481,-0.047 a 1.316,1.316 0 0 0 -1.571,-0.209 0.83,0.83 0 0 0 -0.212,0.179 0.477,0.477 0 0 0 0.1,0.75 2.143,2.143 0 0 0 0.747,0.289 c 0.261,0.064 0.524,0.119 0.784,0.183 a 2.357,2.357 0 0 1 0.294,0.1 1.329,1.329 0 0 1 0.933,1.263 1.451,1.451 0 0 1 -0.8,1.43 2.642,2.642 0 0 1 -1.234,0.289 z m -19.673,0 a 3.343,3.343 0 0 1 -1.034,-0.152 2.017,2.017 0 0 1 -0.925,-0.7 0.12,0.12 0 0 1 0.028,-0.2 c 0.043,-0.029 0.082,-0.063 0.123,-0.094 a 1.286,1.286 0 0 1 0.424,-0.3 0.621,0.621 0 0 1 0.39,0.3 1.574,1.574 0 0 0 1.638,0.2 0.71,0.71 0 0 0 0.417,-0.394 0.618,0.618 0 0 0 -0.193,-0.751 1.306,1.306 0 0 0 -0.5,-0.232 c -0.321,-0.079 -0.642,-0.156 -0.962,-0.24 a 2.548,2.548 0 0 1 -0.351,-0.12 1.219,1.219 0 0 1 -0.856,-1.041 1.337,1.337 0 0 1 0.68,-1.39 2.422,2.422 0 0 1 2.291,-0.11 1.436,1.436 0 0 1 0.6,0.52 c 0.13,0.186 0.129,0.191 -0.046,0.313 -0.128,0.089 -0.264,0.164 -0.386,0.26 -0.122,0.096 -0.2,0.074 -0.3,-0.052 a 1.27,1.27 0 0 0 -1.46,-0.372 0.8,0.8 0 0 0 -0.338,0.213 0.493,0.493 0 0 0 0.105,0.831 2.835,2.835 0 0 0 0.967,0.316 4.385,4.385 0 0 1 0.806,0.219 1.328,1.328 0 0 1 0.93,1.168 1.458,1.458 0 0 1 -0.734,1.5 2.614,2.614 0 0 1 -1.311,0.322 z m 24.325,0 a 3.393,3.393 0 0 1 -0.955,-0.138 2.017,2.017 0 0 1 -0.942,-0.679 0.154,0.154 0 0 1 0.043,-0.272 c 0.026,-0.015 0.049,-0.038 0.074,-0.056 a 1.244,1.244 0 0 1 0.451,-0.31 0.815,0.815 0 0 1 0.388,0.319 1.573,1.573 0 0 0 1.64,0.181 0.7,0.7 0 0 0 0.408,-0.4 0.622,0.622 0 0 0 -0.246,-0.764 1.855,1.855 0 0 0 -0.692,-0.258 6.211,6.211 0 0 1 -1.131,-0.32 1.213,1.213 0 0 1 -0.794,-0.922 1.318,1.318 0 0 1 0.582,-1.433 2.377,2.377 0 0 1 2.449,-0.129 1.49,1.49 0 0 1 0.562,0.522 c 0.073,0.1 0.081,0.179 -0.041,0.252 a 4.556,4.556 0 0 0 -0.413,0.275 0.177,0.177 0 0 1 -0.3,-0.039 1.259,1.259 0 0 0 -1.455,-0.381 0.913,0.913 0 0 0 -0.222,0.108 0.525,0.525 0 0 0 0.047,0.977 3.26,3.26 0 0 0 0.916,0.279 3.967,3.967 0 0 1 0.861,0.249 1.3,1.3 0 0 1 0.854,1.153 1.451,1.451 0 0 1 -0.641,1.421 2.554,2.554 0 0 1 -1.442,0.378 z m 24.962,-2.349 c 0,0.662 0,1.324 0,1.986 0,0.221 0,0.228 -0.222,0.226 a 1.028,1.028 0 0 1 -0.6,-0.034 0.781,0.781 0 0 1 -0.053,-0.591 c -0.007,-1.138 0,-2.275 0,-3.413 0,-0.073 0,-0.145 0,-0.217 a 0.146,0.146 0 0 0 -0.179,-0.181 c -0.248,0.006 -0.5,-0.007 -0.744,0 a 0.173,0.173 0 0 1 -0.21,-0.217 c 0.016,-0.648 -0.085,-0.514 0.513,-0.53 0.135,0 0.27,-0.008 0.4,0 a 0.173,0.173 0 0 0 0.219,-0.212 c -0.009,-0.289 -0.005,-0.579 0,-0.868 a 5.077,5.077 0 0 1 0.064,-0.834 1.636,1.636 0 0 1 1.9,-1.408 c 0.535,0.03 0.547,0.061 0.477,0.579 0,0.03 -0.006,0.061 -0.011,0.092 -0.04,0.228 -0.04,0.226 -0.267,0.184 a 1.693,1.693 0 0 0 -0.615,-0.023 0.716,0.716 0 0 0 -0.581,0.5 1.255,1.255 0 0 0 -0.078,0.426 c 0,0.444 -0.01,0.889 -0.01,1.334 0,0.228 0,0.23 0.247,0.232 0.279,0 0.558,0 0.838,0 a 0.14,0.14 0 0 1 0.17,0.158 c 0.042,0.588 0.046,0.587 -0.549,0.587 -0.166,0 -0.332,0.009 -0.5,0 a 0.169,0.169 0 0 0 -0.213,0.208 c 0.009,0.548 0,1.1 0,1.644 v 0.373 z m 37.632,-1.691 a 0.241,0.241 0 0 1 -0.143,-0.09 1.648,1.648 0 0 0 -1.53,-0.486 1.6,1.6 0 0 0 -1.347,1.36 2.276,2.276 0 0 0 0.221,1.593 1.675,1.675 0 0 0 2.69,0.317 0.98,0.98 0 0 1 0.088,-0.083 5.936,5.936 0 0 1 0.583,0.528 0.083,0.083 0 0 1 0.008,0.133 c -0.043,0.045 -0.086,0.089 -0.131,0.132 a 2.747,2.747 0 0 1 -4.108,-0.662 2.961,2.961 0 0 1 -0.126,-2.577 2.372,2.372 0 0 1 1.564,-1.442 2.949,2.949 0 0 1 2.147,0.133 2.213,2.213 0 0 1 0.656,0.461 0.1,0.1 0 0 1 0,0.18 c -0.193,0.179 -0.385,0.353 -0.565,0.516 z m -126.139,-1.276 c 0.307,0 0.565,0.009 0.822,0 a 0.242,0.242 0 0 1 0.268,0.191 c 0.25,0.645 0.508,1.288 0.764,1.931 0.213,0.538 0.425,1.076 0.641,1.613 a 0.633,0.633 0 0 0 0.127,0.252 0.569,0.569 0 0 0 0.144,-0.291 q 0.659,-1.724 1.309,-3.448 c 0.092,-0.243 0.094,-0.243 0.348,-0.245 h 0.64 a 0.539,0.539 0 0 1 -0.079,0.323 q -0.9,2.292 -1.81,4.583 c -0.127,0.321 -0.082,0.276 -0.392,0.272 a 1.19,1.19 0 0 1 -0.665,-0.041 1.251,1.251 0 0 1 -0.271,-0.58 q -0.858,-2.094 -1.711,-4.189 c -0.039,-0.094 -0.074,-0.2 -0.132,-0.358 z m 83.291,0.71 a 2.233,2.233 0 0 1 1.208,-0.784 2.1,2.1 0 0 1 0.676,-0.053 c 0.134,0.011 0.219,0.051 0.193,0.207 -0.009,0.051 0,0.1 -0.008,0.155 a 0.888,0.888 0 0 1 -0.059,0.508 0.713,0.713 0 0 1 -0.471,0 1.29,1.29 0 0 0 -1.356,1 2.935,2.935 0 0 0 -0.12,0.917 c 0,0.754 0,1.509 0,2.263 0,0.255 0,0.265 -0.252,0.257 a 0.839,0.839 0 0 1 -0.592,-0.051 0.92,0.92 0 0 1 -0.036,-0.571 c 0,-0.982 0,-1.964 0,-2.946 0,-0.454 -0.025,-0.908 -0.036,-1.362 -0.006,-0.242 0,-0.247 0.224,-0.246 a 0.948,0.948 0 0 1 0.543,0.03 0.855,0.855 0 0 1 0.08,0.526 1.088,1.088 0 0 1 0.009,0.163 z m 14.8,0.027 a 1.919,1.919 0 0 1 1.138,-0.806 2.123,2.123 0 0 1 0.706,-0.056 c 0.137,0.01 0.215,0.053 0.193,0.207 -0.011,0.071 0,0.144 -0.011,0.216 a 0.733,0.733 0 0 1 -0.068,0.449 0.627,0.627 0 0 1 -0.413,0 1.378,1.378 0 0 0 -1.492,1.37 5.42,5.42 0 0 0 -0.038,0.649 c 0,0.724 0,1.448 0,2.172 0,0.241 0,0.243 -0.233,0.246 -0.144,0 -0.289,-0.006 -0.434,0 -0.145,0.006 -0.232,-0.035 -0.217,-0.207 0.013,-0.154 0,-0.31 0,-0.465 -0.015,-1.437 0.038,-2.875 -0.039,-4.311 -0.008,-0.143 0.028,-0.213 0.185,-0.2 a 4.242,4.242 0 0 0 0.465,0 0.149,0.149 0 0 1 0.186,0.175 c -0.006,0.182 0,0.365 0,0.547 z m -103.127,-0.02 a 2.26,2.26 0 0 1 1.211,-0.792 2.106,2.106 0 0 1 0.708,-0.048 0.157,0.157 0 0 1 0.174,0.195 c -0.023,0.226 -0.038,0.453 -0.057,0.675 a 0.277,0.277 0 0 1 -0.241,0.008 2.211,2.211 0 0 0 -0.738,0.054 1.153,1.153 0 0 0 -0.71,0.562 2.491,2.491 0 0 0 -0.285,1.225 c -0.007,0.776 0,1.552 0,2.329 0,0.252 0,0.258 -0.252,0.254 a 0.945,0.945 0 0 1 -0.571,-0.036 0.768,0.768 0 0 1 -0.048,-0.564 c -0.007,-1.232 0,-2.464 -0.01,-3.695 0,-0.238 -0.026,-0.475 -0.043,-0.712 a 0.132,0.132 0 0 1 0.154,-0.172 h 0.031 a 1.137,1.137 0 0 1 0.6,0.038 0.862,0.862 0 0 1 0.066,0.561 1.171,1.171 0 0 1 0.018,0.131 z M 466.4,301.834 a 2.03,2.03 0 1 1 -2.028,-2.035 2.038,2.038 0 0 1 2.028,2.035 z m -0.543,0.007 a 1.5,1.5 0 0 0 -1.831,-1.529 1.558,1.558 0 0 0 -1.136,1.727 1.4872986,1.4872986 0 0 0 2.968,-0.198 z m -125.82,19.944 q 0,1.146 0,2.293 c 0,0.263 0,0.264 -0.275,0.266 -0.155,0 -0.31,0 -0.465,0 a 0.122,0.122 0 0 1 -0.147,-0.146 c 0,-0.062 0,-0.124 0,-0.186 v -4.525 c 0,-0.062 0,-0.125 0,-0.186 a 0.123,0.123 0 0 1 0.152,-0.142 c 0.186,0 0.372,0.006 0.557,0 a 0.147,0.147 0 0 1 0.18,0.179 c -0.006,0.4 0,0.806 0,1.209 v 1.24 z m 35.558,-0.033 c 0,-0.785 0,-1.57 0,-2.355 0,-0.233 0,-0.234 0.241,-0.238 0.165,0 0.33,0 0.5,0 a 0.122,0.122 0 0 1 0.15,0.143 c 0,0.062 0,0.124 0,0.186 v 4.525 c 0,0.072 0,0.145 0,0.217 a 0.1,0.1 0 0 1 -0.115,0.112 h -0.65 a 0.113,0.113 0 0 1 -0.119,-0.142 c 0,-0.072 0,-0.145 0,-0.217 v -2.232 z m -43.542,0.017 c 0,0.745 0,1.489 0,2.233 0,0.379 0.049,0.336 -0.354,0.34 -0.124,0 -0.248,0 -0.371,0 a 0.122,0.122 0 0 1 -0.149,-0.144 c 0,-0.062 0,-0.124 0,-0.186 v -4.526 c 0,-0.062 0,-0.124 0,-0.186 a 0.112,0.112 0 0 1 0.122,-0.138 c 0.206,0 0.413,0 0.619,0 a 0.111,0.111 0 0 1 0.133,0.127 c 0,0.073 0,0.145 0,0.217 z m 44.628,-4.61 a 0.64217521,0.64217521 0 0 1 -1.284,-0.03 0.64217521,0.64217521 0 0 1 1.284,0.03 z m -37.069,-0.656 a 0.644,0.644 0 0 1 0.625,0.672 0.641,0.641 0 0 1 -1.281,-0.031 0.642,0.642 0 0 1 0.656,-0.644 z m -8.628,0.657 a 0.63221535,0.63221535 0 1 1 1.264,-0.033 0.63221535,0.63221535 0 1 1 -1.264,0.033 z M 465.29,302.85 a 0.517,0.517 0 0 1 -0.091,0.034 0.53,0.53 0 0 1 -0.7,-0.377 c -0.058,-0.1 -0.114,-0.2 -0.174,-0.294 -0.036,-0.059 -0.063,-0.151 -0.153,-0.119 -0.09,0.032 -0.049,0.125 -0.051,0.192 a 3.87,3.87 0 0 0 0,0.4 c 0.007,0.142 -0.038,0.218 -0.193,0.2 a 0.963,0.963 0 0 0 -0.186,0 0.124,0.124 0 0 1 -0.145,-0.15 c 0,-0.1 0,-0.207 0,-0.31 0,-0.476 0,-0.952 0,-1.428 0,-0.262 0,-0.266 0.277,-0.264 a 4.169,4.169 0 0 1 0.773,0.037 0.62,0.62 0 0 1 0.572,0.446 0.683,0.683 0 0 1 -0.325,0.771 c -0.032,0.022 -0.064,0.046 -0.1,0.074 z m -0.946,-1.225 c 0.056,-0.006 0.117,-0.012 0.178,-0.02 a 0.189,0.189 0 0 0 0.174,-0.187 0.2,0.2 0 0 0 -0.147,-0.211 0.831,0.831 0 0 0 -0.336,-0.029 0.1,0.1 0 0 0 -0.076,0.041 0.553,0.553 0 0 0 -0.011,0.334 c 0.027,0.11 0.138,0.054 0.218,0.072 z"
         class="cls-1"
         inkscape:connector-curvature="0"
         style="fill-rule:evenodd;" />
      <path
         transform="translate(-319,-267)"
         d="m 480,278.242 a 4.225,4.225 0 0 1 -0.181,0.45 2.046,2.046 0 0 1 -1.858,1.148 c -1.645,0.023 -3.29,0.027 -4.935,0 a 2.126,2.126 0 0 1 -2.1,-2.16 c 0.024,-1.956 0.007,-3.912 0.007,-5.868 0,-0.072 0,-0.145 0,-0.217 0,-0.233 -0.006,-0.23 -0.245,-0.239 a 0.739,0.739 0 0 1 -0.451,-0.032 0.654,0.654 0 0 1 -0.046,-0.474 c -0.01,-0.238 0,-0.476 0,-0.714 0,-0.238 0,-0.234 0.246,-0.234 q 1.116,0 2.234,0 c 0.641,0 1.283,0 1.924,0.013 a 4.235,4.235 0 0 1 1.1,0.178 2.5,2.5 0 0 1 1.925,2.857 3.778,3.778 0 0 1 -0.061,0.461 2.374,2.374 0 0 1 -2.036,1.909 6.9,6.9 0 0 1 -1.51,0.145 c -0.393,0 -0.786,0 -1.179,0 a 0.166,0.166 0 0 0 -0.2,0.2 c 0,0.662 0,1.325 0,1.987 a 0.42,0.42 0 0 0 0.485,0.472 q 2.375,0 4.749,0 a 0.409,0.409 0 0 0 0.472,-0.475 c 0.006,-0.4 0,-0.808 0,-1.211 q 0,-3.508 0,-7.017 a 2.906,2.906 0 0 0 -0.006,-0.31 0.386,0.386 0 0 0 -0.381,-0.375 c -0.082,-0.008 -0.165,0 -0.248,0 h -10.893 c -0.072,0 -0.145,0 -0.217,0 a 0.418,0.418 0 0 0 -0.43,0.4 2.053,2.053 0 0 0 0,0.248 V 280 a 0.456,0.456 0 0 0 0.553,0.558 c 1.273,0 2.545,0 3.818,0 0.467,0 0.4,-0.053 0.4,0.42 q 0,0.526 0,1.055 c 0,0.241 0,0.243 -0.235,0.246 -0.206,0 -0.413,0 -0.62,0 -1.169,0 -2.338,0.005 -3.507,0 a 2.082,2.082 0 0 1 -2.112,-2.139 c 0,-3.664 0.007,-7.327 0,-10.991 a 2.154,2.154 0 0 1 1.538,-2.06 0.306,0.306 0 0 0 0.223,-0.088 h 12.045 a 0.761,0.761 0 0 0 0.316,0.11 2.151,2.151 0 0 1 0.988,0.666 2.317,2.317 0 0 1 0.434,0.839 v 9.627 z m -7.37,-5.55 c 0,0.362 0,0.724 0,1.086 0,0.227 0.006,0.233 0.216,0.234 0.434,0 0.869,0.01 1.3,-0.008 a 2.6,2.6 0 0 0 1.053,-0.226 1.249,1.249 0 0 0 0.017,-2.171 2.235,2.235 0 0 0 -0.712,-0.2 15.819,15.819 0 0 0 -1.672,-0.05 c -0.17,0 -0.211,0.066 -0.208,0.22 0.011,0.37 0.006,0.742 0.006,1.115 z m 7.37,-4.077 a 2.317,2.317 0 0 0 -0.434,-0.839 2.151,2.151 0 0 0 -0.988,-0.666 0.761,0.761 0 0 1 -0.316,-0.11 m -157.078,11.366 c 0.621,0 1.241,0 1.862,0 0.264,0 0.267,0 0.267,0.276 q 0,1.69 0,3.382 c 0,0.25 0,0.254 -0.258,0.254 q -1.893,0 -3.785,0 c -0.256,0 -0.262,-0.006 -0.262,-0.26 q 0,-1.692 0,-3.383 c 0,-0.265 0,-0.268 0.284,-0.269 0.631,-10e-4 1.262,0 1.892,0 z m 146.222,-3.472 c 0,-0.744 0,-1.488 0,-2.232 0,-0.235 0,-0.239 0.242,-0.241 q 0.6,0 1.208,0 c 0.256,0 0.26,0 0.26,0.254 0,0.62 0,1.24 0,1.86 0,0.786 0.007,1.571 0,2.357 a 0.558,0.558 0 0 0 0.393,0.65 0.158,0.158 0 0 1 0.1,0.2 c 0,0.4 0,0.806 0,1.209 0,0.225 -0.02,0.246 -0.258,0.213 a 2.136,2.136 0 0 1 -1.824,-1.431 1.924,1.924 0 0 1 -0.117,-0.7 c -0.002,-0.713 -0.004,-1.426 -0.004,-2.139 z m 0.835,-3.536 c -0.217,0 -0.433,0 -0.649,0 a 0.149,0.149 0 0 1 -0.188,-0.172 c 0.007,-0.371 0,-0.742 0,-1.114 0,-0.108 0.023,-0.177 0.15,-0.176 0.474,0 0.948,0 1.422,0 a 0.128,0.128 0 0 1 0.142,0.155 c 0,0.381 0,0.763 0,1.144 a 0.138,0.138 0 0 1 -0.167,0.162 c -0.236,-0.002 -0.473,10e-4 -0.71,10e-4 z"
         class="cls-2"
         data-name="Shape 3 copy"
         id="Shape_3_copy"
         inkscape:connector-curvature="0"
         style="fill:#cacaca;fill-rule:evenodd;" />
    </g>
  </g>
</svg>
