
<!-- Created with Inkscape (http://www.inkscape.org/) -->

<svg
   xmlns:dc="http://purl.org/dc/elements/1.1/"
   xmlns:cc="http://creativecommons.org/ns#"
   xmlns:rdf="http://www.w3.org/1999/02/22-rdf-syntax-ns#"
   xmlns:svg="http://www.w3.org/2000/svg"
   xmlns="http://www.w3.org/2000/svg"
   xmlns:sodipodi="http://sodipodi.sourceforge.net/DTD/sodipodi-0.dtd"
   xmlns:inkscape="http://www.inkscape.org/namespaces/inkscape"
   width="300"
   height="130"
   viewBox="0 0 79.374998 34.395834"
   version="1.1"
   id="svg8"
   inkscape:version="0.92.2 (5c3e80d, 2017-08-06)"
   sodipodi:docname="5.svg">
  <defs
     id="defs2">
    <style
       id="style817">
      .cls-1 {
        fill: #898989;
        fill-rule: evenodd;
      }
    </style>
    <style
       id="style5148">
      .cls-1 {
        fill: #898989;
        fill-rule: evenodd;
      }
    </style>
    <style
       id="style5162">
      .cls-1 {
        fill: #898989;
      }

      .cls-1, .cls-2 {
        fill-rule: evenodd;
      }

      .cls-2 {
        fill: #cacaca;
      }
    </style>
  </defs>
  <sodipodi:namedview
     id="base"
     pagecolor="#ffffff"
     bordercolor="#666666"
     borderopacity="1.0"
     inkscape:pageopacity="0.0"
     inkscape:pageshadow="2"
     inkscape:zoom="1.8101934"
     inkscape:cx="261.24198"
     inkscape:cy="43.948379"
     inkscape:document-units="mm"
     inkscape:current-layer="layer1"
     showgrid="false"
     showguides="false"
     units="px"
     inkscape:window-width="1680"
     inkscape:window-height="987"
     inkscape:window-x="-8"
     inkscape:window-y="-8"
     inkscape:window-maximized="1">
    <sodipodi:guide
       position="0,0"
       orientation="0,793.70079"
       id="guide829"
       inkscape:locked="false" />
    <sodipodi:guide
       position="210,0"
       orientation="-1122.5197,0"
       id="guide831"
       inkscape:locked="false" />
    <sodipodi:guide
       position="210,297"
       orientation="0,-793.70079"
       id="guide833"
       inkscape:locked="false" />
    <sodipodi:guide
       position="0,297"
       orientation="1122.5197,0"
       id="guide835"
       inkscape:locked="false" />
  </sodipodi:namedview>
  <metadata
     id="metadata5">
    <rdf:RDF>
      <cc:Work
         rdf:about="">
        <dc:format>image/svg+xml</dc:format>
        <dc:type
           rdf:resource="http://purl.org/dc/dcmitype/StillImage" />
        <dc:title></dc:title>
      </cc:Work>
    </rdf:RDF>
  </metadata>
  <g
     inkscape:label="Layer 1"
     inkscape:groupmode="layer"
     id="layer1"
     transform="translate(0,-262.60414)">
    <path
       id="path5252"
       d="m 31.022334,282.77366 c 0.03969,-0.45614 0.07276,-0.97896 0.134672,-1.49887 a 7.8827312,7.8827312 0 0 1 0.17489,-0.79163 9.54405,9.54405 0 0 1 0.659871,-1.82377 c 0.119062,-0.26273 0.169862,-0.54663 0.3048,-0.80037 0.04498,-0.0844 0.08123,-0.1733 0.118798,-0.26141 a 0.39819792,0.39819792 0 0 0 0.03201,-0.10742 c 0.02302,-0.18732 -0.06667,-0.24791 -0.243946,-0.1852 q -0.541338,0.18891 -1.08929,0.35983 c -0.179652,0.0561 -0.365389,0.0918 -0.548216,0.13811 a 0.34395833,0.34395833 0 0 1 -0.358246,-0.0987 0.27834167,0.27834167 0 0 1 -0.068,-0.13546 0.80671458,0.80671458 0 0 1 0.09075,-0.49795 c 0.07805,-0.16219 0.15875,-0.32332 0.230452,-0.48842 a 0.22463125,0.22463125 0 0 0 -0.08678,-0.31327 c -0.181769,-0.1135 -0.373592,-0.21008 -0.561975,-0.31247 -0.08652,-0.0471 -0.176213,-0.0886 -0.261408,-0.13785 a 0.08360833,0.08360833 0 0 0 -0.132292,0.0317 c -0.185208,0.2712 -0.361156,0.55113 -0.569648,0.80354 a 3.571875,3.571875 0 0 1 -1.41261,1.09299 7.3869021,7.3869021 0 0 1 -1.088232,0.32835 3.1435146,3.1435146 0 0 1 -1.169723,0.0109 1.8499667,1.8499667 0 0 1 -1.130035,-0.61463 4.0012937,4.0012937 0 0 1 -0.762529,-1.28085 2.3100771,2.3100771 0 0 1 -0.101335,-1.18692 5.1329167,5.1329167 0 0 1 0.482864,-1.50468 5.3152146,5.3152146 0 0 1 1.291431,-1.71688 7.4474917,7.4474917 0 0 1 1.034257,-0.76729 0.225425,0.225425 0 0 0 0.119856,-0.32015 2.2312312,2.2312312 0 0 1 -0.05027,-0.84958 0.39978542,0.39978542 0 0 1 0.173831,-0.29104 3.6623625,3.6623625 0 0 1 0.470694,-0.27808 0.67177708,0.67177708 0 0 1 0.620183,0.0122 4.3391667,4.3391667 0 0 1 0.433123,0.272 5.2318708,5.2318708 0 0 1 1.16205,1.35069 3.9248292,3.9248292 0 0 1 0.415396,0.9361 c 0.09234,0.25374 0.18706,0.508 0.255058,0.76729 a 6.4600667,6.4600667 0 0 1 0.163513,0.8382 c 0.03757,0.30851 0.04022,0.62098 0.06323,0.93134 a 0.24738542,0.24738542 0 0 0 0.0545,0.13229 2.6971625,2.6971625 0 0 0 1.165489,0.78131 0.13467292,0.13467292 0 0 0 0.109538,-0.0143 c 0.07435,-0.0553 0.140229,-0.12144 0.209285,-0.18362 0.217223,-0.19632 0.428361,-0.40031 0.653257,-0.58764 a 0.78237292,0.78237292 0 0 1 0.8382,-0.0913 0.56647292,0.56647292 0 0 1 0.291041,0.36222 1.3308542,1.3308542 0 0 0 0.06773,0.15081 0.27860625,0.27860625 0 0 0 0.278871,0.13891 0.90381667,0.90381667 0 0 1 0.284427,0.0212 0.39819792,0.39819792 0 0 1 0.274373,0.41196 c 0.0074,0.0545 0.0032,0.11059 0.0056,0.16589 0.004,0.10028 0.04524,0.13415 0.140758,0.10293 a 1.0710333,1.0710333 0 0 0 0.188648,-0.0881 5.2421896,5.2421896 0 0 1 1.104635,-0.48445 0.79930625,0.79930625 0 0 1 0.643202,0.0153 0.51726042,0.51726042 0 0 1 0.186796,0.18521 c 0.203729,0.36195 0.3937,0.73157 0.595313,1.09458 a 0.75485625,0.75485625 0 0 0 0.304535,0.3384 0.44317708,0.44317708 0 0 0 0.417248,0.007 2.4526875,2.4526875 0 0 0 0.853546,-0.67654 11.727127,11.727127 0 0 0 1.131094,-1.63301 15.598775,15.598775 0 0 0 0.9017,-1.85632 2.5534937,2.5534937 0 0 0 0.173566,-0.79745 1.8653125,1.8653125 0 0 0 -0.04445,-0.4064 c -0.05292,-0.32967 -0.115887,-0.65802 -0.170921,-0.98743 a 3.5059937,3.5059937 0 0 1 -0.105833,-0.84666 0.71040625,0.71040625 0 0 1 0.395288,-0.62363 2.6963687,2.6963687 0 0 1 0.780256,-0.2868 0.43762083,0.43762083 0 0 1 0.515408,0.28495 2.1119042,2.1119042 0 0 1 0.04313,0.3638 c 0.02646,0.40667 0.0426,0.81439 0.07726,1.22026 0.0291,0.34396 0.07355,0.68792 0.12065,1.03188 a 6.5476437,6.5476437 0 0 0 0.125941,0.71014 c 0.0725,0.28707 0.170392,0.5678 0.258763,0.85064 a 6.9111812,6.9111812 0 0 0 0.928687,1.905 8.8690979,8.8690979 0 0 0 0.659077,0.76464 0.59319583,0.59319583 0 0 0 0.123296,0.096 0.25611667,0.25611667 0 0 0 0.405606,-0.0659 1.0138833,1.0138833 0 0 0 0.192882,-0.55271 5.0503667,5.0503667 0 0 0 0.02117,-0.62627 0.30823958,0.30823958 0 0 1 0.2032,-0.31168 2.1447125,2.1447125 0 0 1 0.731838,-0.21167 0.80221667,0.80221667 0 0 1 0.720725,0.33153 c 0.315383,0.38814 0.626798,0.77946 0.941652,1.16813 0.07514,0.0926 0.15531,0.18071 0.236008,0.26855 a 0.30030208,0.30030208 0 0 0 0.08864,0.0683 c 0.07355,0.0355 0.121708,0.0193 0.137583,-0.0611 a 7.2173042,7.2173042 0 0 0 0.125412,-0.72866 c 0.02778,-0.29105 0.0172,-0.58764 0.03969,-0.88054 a 0.73686458,0.73686458 0 0 1 0.485246,-0.6387 2.8395083,2.8395083 0 0 1 0.832644,-0.17251 3.1003875,3.1003875 0 0 1 0.978958,0.0265 c 0.142875,0.028 0.160602,0.0566 0.1016,0.19182 a 0.98610208,0.98610208 0 0 1 -0.485246,0.48022 c -0.09049,0.0463 -0.181504,0.0913 -0.271462,0.13811 a 0.25743958,0.25743958 0 0 0 -0.138907,0.2167 6.5375896,6.5375896 0 0 1 -0.579437,2.09973 3.5136667,3.5136667 0 0 1 -0.228336,0.40005 0.6969125,0.6969125 0 0 1 -0.413014,0.30136 5.6731958,5.6731958 0 0 1 -0.612511,0.16087 1.0678583,1.0678583 0 0 1 -0.960173,-0.39106 c -0.230981,-0.24923 -0.453495,-0.50667 -0.684477,-0.75618 -0.08467,-0.0913 -0.183356,-0.16933 -0.274108,-0.25479 -0.05159,-0.0484 -0.08546,-0.036 -0.125942,0.0183 a 2.7201812,2.7201812 0 0 1 -0.781843,0.73527 1.3758333,1.3758333 0 0 1 -0.994305,0.14208 2.2174729,2.2174729 0 0 1 -1.084791,-0.59769 6.2256458,6.2256458 0 0 1 -0.9652,-1.17819 c -0.209815,-0.31618 -0.389996,-0.65246 -0.579438,-0.98213 -0.03889,-0.0672 -0.05292,-0.14923 -0.0926,-0.21564 a 2.8485042,2.8485042 0 0 0 -0.200025,-0.28099 c -0.03387,-0.0437 -0.05556,-0.0114 -0.0762,0.0236 -0.162719,0.2749 -0.319617,0.55351 -0.492389,0.82206 -0.306653,0.47625 -0.602721,0.96176 -0.941123,1.41499 a 5.4266042,5.4266042 0 0 1 -1.167342,1.20465 3.0837187,3.0837187 0 0 1 -1.075002,0.53711 2.5320625,2.5320625 0 0 1 -0.883973,0.0265 2.4622125,2.4622125 0 0 1 -0.367506,-0.0677 1.2078229,1.2078229 0 0 1 -0.653786,-0.49715 c -0.147108,-0.2069 -0.257175,-0.44027 -0.384968,-0.66146 -0.04048,-0.0704 -0.08387,-0.13917 -0.128059,-0.20717 a 0.18176875,0.18176875 0 0 0 -0.205052,-0.0807 1.6491479,1.6491479 0 0 0 -0.687917,0.3228 0.2413,0.2413 0 0 0 -0.09737,0.2278 c 0.03995,0.4699 0.08625,0.94007 0.10451,1.41076 0.02223,0.57044 0.03572,1.14221 0.02037,1.71265 -0.01138,0.43233 -0.06271,0.86492 -0.116946,1.29487 -0.04683,0.37174 -0.113771,0.74083 -0.187854,1.1094 a 5.597525,5.597525 0 0 1 -0.461962,1.32291 c -0.105834,0.21961 -0.222514,0.43445 -0.327819,0.65458 a 1.1056937,1.1056937 0 0 1 -0.66622,0.59188 0.96096667,0.96096667 0 0 1 -0.687917,-0.008 0.55959375,0.55959375 0 0 1 -0.286015,-0.32306 3.0083125,3.0083125 0 0 1 -0.308768,-0.97578 c -0.03254,-0.26855 -0.0426,-0.53949 -0.06879,-0.87815 z m -4.426215,-5.59329 a 3.3901062,3.3901062 0 0 0 0.431535,-0.081 1.4022917,1.4022917 0 0 0 0.726017,-0.50112 6.8593229,6.8593229 0 0 0 0.379942,-0.59425 2.530475,2.530475 0 0 0 0.314325,-0.76068 0.30559375,0.30559375 0 0 0 -0.05768,-0.29316 c -0.07938,-0.0897 -0.146844,-0.18812 -0.223044,-0.27966 a 8.6254167,8.6254167 0 0 1 -0.756708,-0.97896 2.6124958,2.6124958 0 0 1 -0.360098,-0.6731 1.8565812,1.8565812 0 0 0 -0.190765,-0.50271 c -0.140229,-0.23204 -0.235214,-0.49133 -0.353748,-0.73686 a 0.16536458,0.16536458 0 0 0 -0.09102,-0.091 0.42174583,0.42174583 0 0 0 -0.359568,0.0878 c -0.07938,0.0688 -0.164307,0.12965 -0.240771,0.20082 a 3.9703375,3.9703375 0 0 0 -0.363273,0.35825 3.4811229,3.4811229 0 0 0 -0.493713,0.93609 5.2599167,5.2599167 0 0 0 -0.417777,1.38827 1.476375,1.476375 0 0 0 0.04736,0.69824 c 0.0844,0.22516 0.181504,0.44582 0.280723,0.6649 a 2.2754167,2.2754167 0 0 0 0.432594,0.67045 1.7481021,1.7481021 0 0 0 1.295664,0.48763 z m 6.231467,2.03332 -0.02646,-0.002 a 0.62653333,0.62653333 0 0 0 -0.03916,0.073 c -0.03969,0.10266 -0.07594,0.20664 -0.116152,0.30904 a 8.6280625,8.6280625 0 0 0 -0.408517,1.52241 c -0.06668,0.34528 -0.113242,0.69479 -0.156104,1.04404 a 1.8425583,1.8425583 0 0 0 0.06562,0.75989 0.70352708,0.70352708 0 0 0 0.1016,0.16086 0.85460417,0.85460417 0 0 0 0.116152,-0.15292 3.3072917,3.3072917 0 0 0 0.266171,-0.90858 c 0.04498,-0.31988 0.124883,-0.635 0.150283,-0.95674 0.04154,-0.52467 0.05292,-1.05198 0.07276,-1.57824 a 1.9547417,1.9547417 0 0 0 -0.02619,-0.26961 z m -1.292225,-2.72071 c -0.0029,0.12568 0.02487,0.15293 0.1397,0.10927 a 1.3107458,1.3107458 0 0 1 0.436562,-0.0611 0.47968958,0.47968958 0 0 0 0.444236,-0.69268 c -0.02646,-0.0677 -0.05927,-0.0667 -0.09975,-0.0228 a 1.0795,1.0795 0 0 1 -0.582084,0.30797 0.33363958,0.33363958 0 0 0 -0.338666,0.3601 z m 19.014016,15.34583 a 0.81650417,0.81650417 0 0 1 -0.661458,-0.36036 3.3226375,3.3226375 0 0 1 -0.630502,-1.17581 c -0.116152,-0.37041 -0.211667,-0.74903 -0.305065,-1.12686 a 6.4894354,6.4894354 0 0 1 -0.148431,-1.08823 c -0.0071,-0.0987 -0.01244,-0.19817 -0.02858,-0.29554 a 0.3556,0.3556 0 0 1 0.05689,-0.26458 1.1686646,1.1686646 0 0 1 0.538692,-0.50271 0.6858,0.6858 0 0 1 0.61304,0.008 0.13705417,0.13705417 0 0 1 0.07937,0.14129 4.4907729,4.4907729 0 0 0 0.305329,1.78435 c 0.08573,0.25585 0.185208,0.50773 0.287866,0.75697 a 1.6917458,1.6917458 0 0 0 0.175155,0.30004 0.17674167,0.17674167 0 0 0 0.306916,0.022 1.6121062,1.6121062 0 0 0 0.200819,-0.29395 6.1804021,6.1804021 0 0 0 0.53631,-1.45971 c 0.07937,-0.30639 0.173567,-0.60854 0.255852,-0.9144 q 0.119857,-0.44609 0.228071,-0.89561 c 0.08176,-0.34211 0.161661,-0.68475 0.232834,-1.02923 0.06932,-0.33602 0.130175,-0.67416 0.188648,-1.0123 0.08123,-0.47016 0.154252,-0.94192 0.23495,-1.41208 q 0.161131,-0.93742 0.329141,-1.87351 0.145521,-0.80778 0.300831,-1.61396 0.123826,-0.64691 0.255059,-1.29196 c 0.06694,-0.33047 0.138112,-0.66146 0.208756,-0.99007 a 0.28125208,0.28125208 0 0 1 0.0344,-0.0892 0.1095375,0.1095375 0 0 0 0,-0.15028 0.19764375,0.19764375 0 0 0 -0.203465,-0.0847 c -0.114564,0.0307 -0.229393,0.0606 -0.343958,0.0871 a 0.55139167,0.55139167 0 0 1 -0.570706,-0.19738 c -0.261938,-0.30745 -0.51144,-0.62521 -0.764911,-0.9398 -0.04895,-0.0609 -0.09419,-0.12541 -0.138641,-0.19024 a 0.79375,0.79375 0 0 0 -0.364067,-0.3003 0.56620833,0.56620833 0 0 1 -0.366712,-0.55933 0.26458333,0.26458333 0 0 1 0.15187,-0.26193 c 0.220134,-0.11642 0.442913,-0.22966 0.672836,-0.32465 a 0.67495208,0.67495208 0 0 1 0.873125,0.21458 c 0.191029,0.22172 0.353219,0.46831 0.529166,0.70379 0.09207,0.12383 0.182563,0.24844 0.275696,0.37042 a 1.0199687,1.0199687 0 0 0 0.103452,0.11774 0.1793875,0.1793875 0 0 0 0.326496,-0.0654 2.9678312,2.9678312 0 0 0 0.124619,-0.30613 0.9906,0.9906 0 0 1 0.576262,-0.60589 1.2035896,1.2035896 0 0 1 0.927894,-0.0916 0.33628542,0.33628542 0 0 1 0.269611,0.37783 2.5701625,2.5701625 0 0 1 -0.07276,0.44529 c -0.0725,0.33523 -0.150019,0.66939 -0.228071,1.0033 -0.06085,0.26008 -0.125677,0.51964 -0.188648,0.77946 q -0.1143,0.47017 -0.228335,0.9406 c -0.06509,0.26828 -0.132292,0.53604 -0.194733,0.80512 q -0.117211,0.51012 -0.226219,1.02156 c -0.06747,0.3175 -0.129381,0.63817 -0.193411,0.95753 -0.07541,0.37623 -0.149489,0.753 -0.226218,1.12897 -0.06271,0.30771 -0.128588,0.61489 -0.192352,0.92234 -0.05292,0.25347 -0.102394,0.50747 -0.155575,0.76068 -0.06244,0.29871 -0.125677,0.59769 -0.191823,0.89561 -0.07355,0.33205 -0.150284,0.66331 -0.226219,0.99484 -0.07593,0.33152 -0.151077,0.65749 -0.227806,0.98583 -0.07197,0.30851 -0.141023,0.6178 -0.220398,0.92446 -0.09128,0.35163 -0.18124,0.70432 -0.291042,1.04986 -0.149754,0.46726 -0.3175,0.92869 -0.479954,1.39171 a 4.2674646,4.2674646 0 0 1 -0.722313,1.28588 1.7078854,1.7078854 0 0 1 -0.433387,0.32861 1.8608146,1.8608146 0 0 1 -0.974196,0.26114 z M 35.241379,269.3868 a 0.38920208,0.38920208 0 0 1 -0.389202,-0.42175 0.79163333,0.79163333 0 0 0 -0.04657,-0.20161 0.46937083,0.46937083 0 0 1 0.211667,-0.63632 1.9796125,1.9796125 0 0 1 0.582083,-0.3056 0.83555417,0.83555417 0 0 1 0.724165,0.0587 0.32649583,0.32649583 0 0 1 0.152135,0.4871 6.9291729,6.9291729 0 0 1 -0.400843,0.67231 0.50720625,0.50720625 0 0 1 -0.405342,0.23812 1.2398375,1.2398375 0 0 0 -0.214842,0.0669 c -0.07091,0.018 -0.142345,0.0283 -0.213254,0.0421 z"
       class="cls-1"
       inkscape:connector-curvature="0"
       style="fill-rule:evenodd;stroke-width:0.26458332" />
  </g>
</svg>
